%!PS-Adobe-3.0 EPSF-3.0
%%Title: /home/ssilvari/Documents/temp/ADNI_temp/ADNI_FS_sphere_mapped/curvelets_non_split/ROC/roc_by_month/sobel_svm_10_folds.eps
%%Creator: matplotlib version 3.0.2, http://matplotlib.org/
%%CreationDate: Sun Mar  3 17:20:16 2019
%%Orientation: portrait
%%BoundingBox: 82 170 529 621
%%EndComments
%%BeginProlog
/mpldict 8 dict def
mpldict begin
/m { moveto } bind def
/l { lineto } bind def
/r { rlineto } bind def
/c { curveto } bind def
/cl { closepath } bind def
/box {
m
1 index 0 r
0 exch r
neg 0 r
cl
} bind def
/clipbox {
box
clip
newpath
} bind def
%!PS-Adobe-3.0 Resource-Font
%%Title: DejaVu Sans
%%Copyright: Copyright (c) 2003 by Bitstream, Inc. All Rights Reserved. Copyright (c) 2006 by Tavmjong Bah. All Rights Reserved. DejaVu changes are in public domain 
%%Creator: Converted from TrueType to type 3 by PPR
25 dict begin
/_d{bind def}bind def
/_m{moveto}_d
/_l{lineto}_d
/_cl{closepath eofill}_d
/_c{curveto}_d
/_sc{7 -1 roll{setcachedevice}{pop pop pop pop pop pop}ifelse}_d
/_e{exec}_d
/FontName /DejaVuSans def
/PaintType 0 def
/FontMatrix[.001 0 0 .001 0 0]def
/FontBBox[-1021 -463 1793 1232]def
/FontType 3 def
/Encoding [ /space /parenleft /parenright /hyphen /period /zero /one /two /three /four /five /six /seven /eight /equal /A /C /F /M /O /R /S /T /U /V /a /b /d /e /f /h /i /l /n /o /p /r /s /t /u /v ] def
/FontInfo 10 dict dup begin
/FamilyName (DejaVu Sans) def
/FullName (DejaVu Sans) def
/Notice (Copyright (c) 2003 by Bitstream, Inc. All Rights Reserved. Copyright (c) 2006 by Tavmjong Bah. All Rights Reserved. DejaVu changes are in public domain ) def
/Weight (Book) def
/Version (Version 2.35) def
/ItalicAngle 0.0 def
/isFixedPitch false def
/UnderlinePosition -130 def
/UnderlineThickness 90 def
end readonly def
/CharStrings 42 dict dup begin
/.notdef 0 def
/space{318 0 0 0 0 0 _sc
}_d
/parenleft{390 0 86 -131 310 759 _sc
310 759 _m
266 683 234 609 213 536 _c
191 463 181 389 181 314 _c
181 238 191 164 213 91 _c
234 17 266 -56 310 -131 _c
232 -131 _l
183 -54 146 20 122 94 _c
98 168 86 241 86 314 _c
86 386 98 459 122 533 _c
146 607 182 682 232 759 _c
310 759 _l
_cl}_d
/parenright{390 0 80 -131 304 759 _sc
80 759 _m
158 759 _l
206 682 243 607 267 533 _c
291 459 304 386 304 314 _c
304 241 291 168 267 94 _c
243 20 206 -54 158 -131 _c
80 -131 _l
123 -56 155 17 177 91 _c
198 164 209 238 209 314 _c
209 389 198 463 177 536 _c
155 609 123 683 80 759 _c
_cl}_d
/hyphen{361 0 49 234 312 314 _sc
49 314 _m
312 314 _l
312 234 _l
49 234 _l
49 314 _l
_cl}_d
/period{318 0 107 0 210 124 _sc
107 124 _m
210 124 _l
210 0 _l
107 0 _l
107 124 _l
_cl}_d
/zero{636 0 66 -13 570 742 _sc
318 664 _m
267 664 229 639 203 589 _c
177 539 165 464 165 364 _c
165 264 177 189 203 139 _c
229 89 267 64 318 64 _c
369 64 407 89 433 139 _c
458 189 471 264 471 364 _c
471 464 458 539 433 589 _c
407 639 369 664 318 664 _c
318 742 _m
399 742 461 709 505 645 _c
548 580 570 486 570 364 _c
570 241 548 147 505 83 _c
461 19 399 -13 318 -13 _c
236 -13 173 19 130 83 _c
87 147 66 241 66 364 _c
66 486 87 580 130 645 _c
173 709 236 742 318 742 _c
_cl}_d
/one{636 0 110 0 544 729 _sc
124 83 _m
285 83 _l
285 639 _l
110 604 _l
110 694 _l
284 729 _l
383 729 _l
383 83 _l
544 83 _l
544 0 _l
124 0 _l
124 83 _l
_cl}_d
/two{{636 0 73 0 536 742 _sc
192 83 _m
536 83 _l
536 0 _l
73 0 _l
73 83 _l
110 121 161 173 226 239 _c
290 304 331 346 348 365 _c
380 400 402 430 414 455 _c
426 479 433 504 433 528 _c
433 566 419 598 392 622 _c
365 646 330 659 286 659 _c
255 659 222 653 188 643 _c
154 632 117 616 78 594 _c
78 694 _l
118 710 155 722 189 730 _c
223 738 255 742 284 742 _c
}_e{359 742 419 723 464 685 _c
509 647 532 597 532 534 _c
532 504 526 475 515 449 _c
504 422 484 390 454 354 _c
446 344 420 317 376 272 _c
332 227 271 164 192 83 _c
_cl}_e}_d
/three{{636 0 76 -13 556 742 _sc
406 393 _m
453 383 490 362 516 330 _c
542 298 556 258 556 212 _c
556 140 531 84 482 45 _c
432 6 362 -13 271 -13 _c
240 -13 208 -10 176 -4 _c
144 1 110 10 76 22 _c
76 117 _l
103 101 133 89 166 81 _c
198 73 232 69 268 69 _c
330 69 377 81 409 105 _c
441 129 458 165 458 212 _c
458 254 443 288 413 312 _c
383 336 341 349 287 349 _c
}_e{202 349 _l
202 430 _l
291 430 _l
339 430 376 439 402 459 _c
428 478 441 506 441 543 _c
441 580 427 609 401 629 _c
374 649 336 659 287 659 _c
260 659 231 656 200 650 _c
169 644 135 635 98 623 _c
98 711 _l
135 721 170 729 203 734 _c
235 739 266 742 296 742 _c
370 742 429 725 473 691 _c
517 657 539 611 539 553 _c
539 513 527 479 504 451 _c
481 423 448 403 406 393 _c
_cl}_e}_d
/four{636 0 49 0 580 729 _sc
378 643 _m
129 254 _l
378 254 _l
378 643 _l
352 729 _m
476 729 _l
476 254 _l
580 254 _l
580 172 _l
476 172 _l
476 0 _l
378 0 _l
378 172 _l
49 172 _l
49 267 _l
352 729 _l
_cl}_d
/five{{636 0 77 -13 549 729 _sc
108 729 _m
495 729 _l
495 646 _l
198 646 _l
198 467 _l
212 472 227 476 241 478 _c
255 480 270 482 284 482 _c
365 482 429 459 477 415 _c
525 370 549 310 549 234 _c
549 155 524 94 475 51 _c
426 8 357 -13 269 -13 _c
238 -13 207 -10 175 -6 _c
143 -1 111 6 77 17 _c
77 116 _l
106 100 136 88 168 80 _c
199 72 232 69 267 69 _c
}_e{323 69 368 83 401 113 _c
433 143 450 183 450 234 _c
450 284 433 324 401 354 _c
368 384 323 399 267 399 _c
241 399 214 396 188 390 _c
162 384 135 375 108 363 _c
108 729 _l
_cl}_e}_d
/six{{636 0 70 -13 573 742 _sc
330 404 _m
286 404 251 388 225 358 _c
199 328 186 286 186 234 _c
186 181 199 139 225 109 _c
251 79 286 64 330 64 _c
374 64 409 79 435 109 _c
461 139 474 181 474 234 _c
474 286 461 328 435 358 _c
409 388 374 404 330 404 _c
526 713 _m
526 623 _l
501 635 476 644 451 650 _c
425 656 400 659 376 659 _c
310 659 260 637 226 593 _c
}_e{192 549 172 482 168 394 _c
187 422 211 444 240 459 _c
269 474 301 482 336 482 _c
409 482 467 459 509 415 _c
551 371 573 310 573 234 _c
573 159 550 99 506 54 _c
462 9 403 -13 330 -13 _c
246 -13 181 19 137 83 _c
92 147 70 241 70 364 _c
70 479 97 571 152 639 _c
206 707 280 742 372 742 _c
396 742 421 739 447 735 _c
472 730 498 723 526 713 _c
_cl}_e}_d
/seven{636 0 82 0 551 729 _sc
82 729 _m
551 729 _l
551 687 _l
286 0 _l
183 0 _l
432 646 _l
82 646 _l
82 729 _l
_cl}_d
/eight{{636 0 68 -13 568 742 _sc
318 346 _m
271 346 234 333 207 308 _c
180 283 167 249 167 205 _c
167 161 180 126 207 101 _c
234 76 271 64 318 64 _c
364 64 401 76 428 102 _c
455 127 469 161 469 205 _c
469 249 455 283 429 308 _c
402 333 365 346 318 346 _c
219 388 _m
177 398 144 418 120 447 _c
96 476 85 511 85 553 _c
85 611 105 657 147 691 _c
188 725 245 742 318 742 _c
}_e{390 742 447 725 489 691 _c
530 657 551 611 551 553 _c
551 511 539 476 515 447 _c
491 418 459 398 417 388 _c
464 377 501 355 528 323 _c
554 291 568 251 568 205 _c
568 134 546 80 503 43 _c
459 5 398 -13 318 -13 _c
237 -13 175 5 132 43 _c
89 80 68 134 68 205 _c
68 251 81 291 108 323 _c
134 355 171 377 219 388 _c
183 544 _m
183 506 194 476 218 455 _c
}_e{242 434 275 424 318 424 _c
360 424 393 434 417 455 _c
441 476 453 506 453 544 _c
453 582 441 611 417 632 _c
393 653 360 664 318 664 _c
275 664 242 653 218 632 _c
194 611 183 582 183 544 _c
_cl}_e}_d
/equal{838 0 106 172 732 454 _sc
106 454 _m
732 454 _l
732 372 _l
106 372 _l
106 454 _l
106 255 _m
732 255 _l
732 172 _l
106 172 _l
106 255 _l
_cl}_d
/A{684 0 8 0 676 729 _sc
342 632 _m
208 269 _l
476 269 _l
342 632 _l
286 729 _m
398 729 _l
676 0 _l
573 0 _l
507 187 _l
178 187 _l
112 0 _l
8 0 _l
286 729 _l
_cl}_d
/C{{698 0 56 -13 644 742 _sc
644 673 _m
644 569 _l
610 599 575 622 537 638 _c
499 653 460 661 418 661 _c
334 661 270 635 226 584 _c
182 533 160 460 160 364 _c
160 268 182 194 226 143 _c
270 92 334 67 418 67 _c
460 67 499 74 537 90 _c
575 105 610 128 644 159 _c
644 56 _l
609 32 572 15 534 4 _c
496 -7 455 -13 412 -13 _c
302 -13 215 20 151 87 _c
}_e{87 154 56 246 56 364 _c
56 481 87 573 151 641 _c
215 708 302 742 412 742 _c
456 742 497 736 535 725 _c
573 713 610 696 644 673 _c
_cl}_e}_d
/F{575 0 98 0 517 729 _sc
98 729 _m
517 729 _l
517 646 _l
197 646 _l
197 431 _l
486 431 _l
486 348 _l
197 348 _l
197 0 _l
98 0 _l
98 729 _l
_cl}_d
/M{863 0 98 0 765 729 _sc
98 729 _m
245 729 _l
431 233 _l
618 729 _l
765 729 _l
765 0 _l
669 0 _l
669 640 _l
481 140 _l
382 140 _l
194 640 _l
194 0 _l
98 0 _l
98 729 _l
_cl}_d
/O{787 0 56 -13 731 742 _sc
394 662 _m
322 662 265 635 223 582 _c
181 528 160 456 160 364 _c
160 272 181 199 223 146 _c
265 92 322 66 394 66 _c
465 66 522 92 564 146 _c
606 199 627 272 627 364 _c
627 456 606 528 564 582 _c
522 635 465 662 394 662 _c
394 742 _m
496 742 577 707 639 639 _c
700 571 731 479 731 364 _c
731 248 700 157 639 89 _c
577 21 496 -13 394 -13 _c
291 -13 209 21 148 89 _c
86 157 56 248 56 364 _c
56 479 86 571 148 639 _c
209 707 291 742 394 742 _c
_cl}_d
/R{{695 0 98 0 666 729 _sc
444 342 _m
465 334 486 319 506 296 _c
526 272 546 240 566 199 _c
666 0 _l
560 0 _l
467 187 _l
443 235 419 268 397 284 _c
374 300 343 308 304 308 _c
197 308 _l
197 0 _l
98 0 _l
98 729 _l
321 729 _l
404 729 466 711 507 677 _c
548 642 569 589 569 519 _c
569 473 558 434 537 404 _c
515 374 484 353 444 342 _c
197 648 _m
197 389 _l
321 389 _l
}_e{368 389 404 400 428 422 _c
452 444 465 476 465 519 _c
465 561 452 593 428 615 _c
404 637 368 648 321 648 _c
197 648 _l
_cl}_e}_d
/S{{635 0 66 -13 579 742 _sc
535 705 _m
535 609 _l
497 627 462 640 429 649 _c
395 657 363 662 333 662 _c
279 662 237 651 208 631 _c
179 610 165 580 165 542 _c
165 510 174 485 194 469 _c
213 452 250 439 304 429 _c
364 417 _l
437 403 491 378 526 343 _c
561 307 579 260 579 201 _c
579 130 555 77 508 41 _c
460 5 391 -13 300 -13 _c
265 -13 228 -9 189 -2 _c
}_e{150 5 110 16 69 32 _c
69 134 _l
109 111 148 94 186 83 _c
224 71 262 66 300 66 _c
356 66 399 77 430 99 _c
460 121 476 152 476 194 _c
476 230 465 258 443 278 _c
421 298 385 313 335 323 _c
275 335 _l
201 349 148 372 115 404 _c
82 435 66 478 66 534 _c
66 598 88 649 134 686 _c
179 723 242 742 322 742 _c
356 742 390 739 426 733 _c
461 727 497 717 535 705 _c
}_e{_cl}_e}_d
/T{611 0 -2 0 614 729 _sc
-2 729 _m
614 729 _l
614 646 _l
355 646 _l
355 0 _l
256 0 _l
256 646 _l
-2 646 _l
-2 729 _l
_cl}_d
/U{732 0 87 -13 645 729 _sc
87 729 _m
186 729 _l
186 286 _l
186 208 200 151 228 117 _c
256 83 302 66 366 66 _c
429 66 475 83 503 117 _c
531 151 546 208 546 286 _c
546 729 _l
645 729 _l
645 274 _l
645 178 621 107 574 59 _c
527 11 458 -13 366 -13 _c
274 -13 204 11 157 59 _c
110 107 87 178 87 274 _c
87 729 _l
_cl}_d
/V{684 0 8 0 676 729 _sc
286 0 _m
8 729 _l
111 729 _l
342 115 _l
573 729 _l
676 729 _l
398 0 _l
286 0 _l
_cl}_d
/a{{613 0 60 -13 522 560 _sc
343 275 _m
270 275 220 266 192 250 _c
164 233 150 205 150 165 _c
150 133 160 107 181 89 _c
202 70 231 61 267 61 _c
317 61 357 78 387 114 _c
417 149 432 196 432 255 _c
432 275 _l
343 275 _l
522 312 _m
522 0 _l
432 0 _l
432 83 _l
411 49 385 25 355 10 _c
325 -5 287 -13 243 -13 _c
187 -13 142 2 109 33 _c
76 64 60 106 60 159 _c
}_e{60 220 80 266 122 298 _c
163 329 224 345 306 345 _c
432 345 _l
432 354 _l
432 395 418 427 391 450 _c
364 472 326 484 277 484 _c
245 484 215 480 185 472 _c
155 464 127 453 100 439 _c
100 522 _l
132 534 164 544 195 550 _c
226 556 256 560 286 560 _c
365 560 424 539 463 498 _c
502 457 522 395 522 312 _c
_cl}_e}_d
/b{{635 0 91 -13 580 760 _sc
487 273 _m
487 339 473 390 446 428 _c
418 466 381 485 334 485 _c
286 485 249 466 222 428 _c
194 390 181 339 181 273 _c
181 207 194 155 222 117 _c
249 79 286 61 334 61 _c
381 61 418 79 446 117 _c
473 155 487 207 487 273 _c
181 464 _m
199 496 223 520 252 536 _c
281 552 316 560 356 560 _c
422 560 476 533 518 481 _c
559 428 580 359 580 273 _c
}_e{580 187 559 117 518 65 _c
476 13 422 -13 356 -13 _c
316 -13 281 -5 252 10 _c
223 25 199 49 181 82 _c
181 0 _l
91 0 _l
91 760 _l
181 760 _l
181 464 _l
_cl}_e}_d
/d{{635 0 55 -13 544 760 _sc
454 464 _m
454 760 _l
544 760 _l
544 0 _l
454 0 _l
454 82 _l
435 49 411 25 382 10 _c
353 -5 319 -13 279 -13 _c
213 -13 159 13 117 65 _c
75 117 55 187 55 273 _c
55 359 75 428 117 481 _c
159 533 213 560 279 560 _c
319 560 353 552 382 536 _c
411 520 435 496 454 464 _c
148 273 _m
148 207 161 155 188 117 _c
215 79 253 61 301 61 _c
}_e{348 61 385 79 413 117 _c
440 155 454 207 454 273 _c
454 339 440 390 413 428 _c
385 466 348 485 301 485 _c
253 485 215 466 188 428 _c
161 390 148 339 148 273 _c
_cl}_e}_d
/e{{615 0 55 -13 562 560 _sc
562 296 _m
562 252 _l
149 252 _l
153 190 171 142 205 110 _c
238 78 284 62 344 62 _c
378 62 412 66 444 74 _c
476 82 509 95 541 113 _c
541 28 _l
509 14 476 3 442 -3 _c
408 -9 373 -13 339 -13 _c
251 -13 182 12 131 62 _c
80 112 55 181 55 268 _c
55 357 79 428 127 481 _c
175 533 241 560 323 560 _c
397 560 455 536 498 489 _c
}_e{540 441 562 377 562 296 _c
472 322 _m
471 371 457 410 431 440 _c
404 469 368 484 324 484 _c
274 484 234 469 204 441 _c
174 413 156 373 152 322 _c
472 322 _l
_cl}_e}_d
/f{352 0 23 0 371 760 _sc
371 760 _m
371 685 _l
285 685 _l
253 685 230 678 218 665 _c
205 652 199 629 199 595 _c
199 547 _l
347 547 _l
347 477 _l
199 477 _l
199 0 _l
109 0 _l
109 477 _l
23 477 _l
23 547 _l
109 547 _l
109 585 _l
109 645 123 690 151 718 _c
179 746 224 760 286 760 _c
371 760 _l
_cl}_d
/h{634 0 91 0 549 760 _sc
549 330 _m
549 0 _l
459 0 _l
459 327 _l
459 379 448 417 428 443 _c
408 469 378 482 338 482 _c
289 482 251 466 223 435 _c
195 404 181 362 181 309 _c
181 0 _l
91 0 _l
91 760 _l
181 760 _l
181 462 _l
202 494 227 519 257 535 _c
286 551 320 560 358 560 _c
420 560 468 540 500 501 _c
532 462 549 405 549 330 _c
_cl}_d
/i{278 0 94 0 184 760 _sc
94 547 _m
184 547 _l
184 0 _l
94 0 _l
94 547 _l
94 760 _m
184 760 _l
184 646 _l
94 646 _l
94 760 _l
_cl}_d
/l{278 0 94 0 184 760 _sc
94 760 _m
184 760 _l
184 0 _l
94 0 _l
94 760 _l
_cl}_d
/n{634 0 91 0 549 560 _sc
549 330 _m
549 0 _l
459 0 _l
459 327 _l
459 379 448 417 428 443 _c
408 469 378 482 338 482 _c
289 482 251 466 223 435 _c
195 404 181 362 181 309 _c
181 0 _l
91 0 _l
91 547 _l
181 547 _l
181 462 _l
202 494 227 519 257 535 _c
286 551 320 560 358 560 _c
420 560 468 540 500 501 _c
532 462 549 405 549 330 _c
_cl}_d
/o{612 0 55 -13 557 560 _sc
306 484 _m
258 484 220 465 192 427 _c
164 389 150 338 150 273 _c
150 207 163 156 191 118 _c
219 80 257 62 306 62 _c
354 62 392 80 420 118 _c
448 156 462 207 462 273 _c
462 337 448 389 420 427 _c
392 465 354 484 306 484 _c
306 560 _m
384 560 445 534 490 484 _c
534 433 557 363 557 273 _c
557 183 534 113 490 63 _c
445 12 384 -13 306 -13 _c
227 -13 165 12 121 63 _c
77 113 55 183 55 273 _c
55 363 77 433 121 484 _c
165 534 227 560 306 560 _c
_cl}_d
/p{{635 0 91 -207 580 560 _sc
181 82 _m
181 -207 _l
91 -207 _l
91 547 _l
181 547 _l
181 464 _l
199 496 223 520 252 536 _c
281 552 316 560 356 560 _c
422 560 476 533 518 481 _c
559 428 580 359 580 273 _c
580 187 559 117 518 65 _c
476 13 422 -13 356 -13 _c
316 -13 281 -5 252 10 _c
223 25 199 49 181 82 _c
487 273 _m
487 339 473 390 446 428 _c
418 466 381 485 334 485 _c
}_e{286 485 249 466 222 428 _c
194 390 181 339 181 273 _c
181 207 194 155 222 117 _c
249 79 286 61 334 61 _c
381 61 418 79 446 117 _c
473 155 487 207 487 273 _c
_cl}_e}_d
/r{411 0 91 0 411 560 _sc
411 463 _m
401 469 390 473 378 476 _c
366 478 353 480 339 480 _c
288 480 249 463 222 430 _c
194 397 181 350 181 288 _c
181 0 _l
91 0 _l
91 547 _l
181 547 _l
181 462 _l
199 495 224 520 254 536 _c
284 552 321 560 365 560 _c
371 560 378 559 386 559 _c
393 558 401 557 411 555 _c
411 463 _l
_cl}_d
/s{{521 0 54 -13 472 560 _sc
443 531 _m
443 446 _l
417 458 391 468 364 475 _c
336 481 308 485 279 485 _c
234 485 200 478 178 464 _c
156 450 145 430 145 403 _c
145 382 153 366 169 354 _c
185 342 217 330 265 320 _c
296 313 _l
360 299 405 279 432 255 _c
458 230 472 195 472 151 _c
472 100 452 60 412 31 _c
372 1 316 -13 246 -13 _c
216 -13 186 -10 154 -5 _c
}_e{122 0 89 8 54 20 _c
54 113 _l
87 95 120 82 152 74 _c
184 65 216 61 248 61 _c
290 61 323 68 346 82 _c
368 96 380 117 380 144 _c
380 168 371 187 355 200 _c
339 213 303 226 247 238 _c
216 245 _l
160 257 119 275 95 299 _c
70 323 58 356 58 399 _c
58 450 76 490 112 518 _c
148 546 200 560 268 560 _c
301 560 332 557 362 552 _c
391 547 418 540 443 531 _c
}_e{_cl}_e}_d
/t{392 0 27 0 368 702 _sc
183 702 _m
183 547 _l
368 547 _l
368 477 _l
183 477 _l
183 180 _l
183 135 189 106 201 94 _c
213 81 238 75 276 75 _c
368 75 _l
368 0 _l
276 0 _l
206 0 158 13 132 39 _c
106 65 93 112 93 180 _c
93 477 _l
27 477 _l
27 547 _l
93 547 _l
93 702 _l
183 702 _l
_cl}_d
/u{634 0 85 -13 543 560 _sc
85 216 _m
85 547 _l
175 547 _l
175 219 _l
175 167 185 129 205 103 _c
225 77 255 64 296 64 _c
344 64 383 79 411 110 _c
439 141 453 183 453 237 _c
453 547 _l
543 547 _l
543 0 _l
453 0 _l
453 84 _l
431 50 405 26 377 10 _c
348 -5 315 -13 277 -13 _c
214 -13 166 6 134 45 _c
101 83 85 140 85 216 _c
311 560 _m
311 560 _l
_cl}_d
/v{592 0 30 0 562 547 _sc
30 547 _m
125 547 _l
296 88 _l
467 547 _l
562 547 _l
357 0 _l
235 0 _l
30 547 _l
_cl}_d
end readonly def

/BuildGlyph
 {exch begin
 CharStrings exch
 2 copy known not{pop /.notdef}if
 true 3 1 roll get exec
 end}_d

/BuildChar {
 1 index /Encoding get exch get
 1 index /BuildGlyph get exec
}_d

FontName currentdict end definefont pop
end
%%EndProlog
mpldict begin
82.484 170.291 translate
447.031 451.417 0 0 clipbox
gsave
0 0 m
447.03125 0 l
447.03125 451.4175 l
0 451.4175 l
cl
1.000 setgray
fill
grestore
gsave
45.73125 39.496875 m
436.33125 39.496875 l
436.33125 427.576875 l
45.73125 427.576875 l
cl
0.898 setgray
fill
grestore
0.800 setlinewidth
1 setlinejoin
2 setlinecap
[] 0 setdash
1.000 setgray
gsave
390.6 388.1 45.73 39.5 clipbox
63.485795 39.496875 m
63.485795 427.576875 l
stroke
grestore
0 setlinecap
0.333 setgray
gsave
/o {
gsave
newpath
translate
0.8 setlinewidth
1 setlinejoin
0 setlinecap
0 0 m
0 -3.5 l

gsave
0.333 setgray
fill
grestore
stroke
grestore
} bind def
63.4858 39.4969 o
grestore
/DejaVuSans findfont
10.000 scalefont
setfont
gsave
55.532670 24.903125 translate
0.000000 rotate
0.000000 0.000000 m /zero glyphshow
6.362305 0.000000 m /period glyphshow
9.541016 0.000000 m /zero glyphshow
grestore
2 setlinecap
1.000 setgray
gsave
390.6 388.1 45.73 39.5 clipbox
134.503977 39.496875 m
134.503977 427.576875 l
stroke
grestore
0 setlinecap
0.333 setgray
gsave
/o {
gsave
newpath
translate
0.8 setlinewidth
1 setlinejoin
0 setlinecap
0 0 m
0 -3.5 l

gsave
0.333 setgray
fill
grestore
stroke
grestore
} bind def
134.504 39.4969 o
grestore
gsave
126.550852 24.903125 translate
0.000000 rotate
0.000000 0.000000 m /zero glyphshow
6.362305 0.000000 m /period glyphshow
9.541016 0.000000 m /two glyphshow
grestore
2 setlinecap
1.000 setgray
gsave
390.6 388.1 45.73 39.5 clipbox
205.522159 39.496875 m
205.522159 427.576875 l
stroke
grestore
0 setlinecap
0.333 setgray
gsave
/o {
gsave
newpath
translate
0.8 setlinewidth
1 setlinejoin
0 setlinecap
0 0 m
0 -3.5 l

gsave
0.333 setgray
fill
grestore
stroke
grestore
} bind def
205.522 39.4969 o
grestore
gsave
197.569034 24.903125 translate
0.000000 rotate
0.000000 0.000000 m /zero glyphshow
6.362305 0.000000 m /period glyphshow
9.541016 0.000000 m /four glyphshow
grestore
2 setlinecap
1.000 setgray
gsave
390.6 388.1 45.73 39.5 clipbox
276.540341 39.496875 m
276.540341 427.576875 l
stroke
grestore
0 setlinecap
0.333 setgray
gsave
/o {
gsave
newpath
translate
0.8 setlinewidth
1 setlinejoin
0 setlinecap
0 0 m
0 -3.5 l

gsave
0.333 setgray
fill
grestore
stroke
grestore
} bind def
276.54 39.4969 o
grestore
gsave
268.587216 24.903125 translate
0.000000 rotate
0.000000 0.000000 m /zero glyphshow
6.362305 0.000000 m /period glyphshow
9.541016 0.000000 m /six glyphshow
grestore
2 setlinecap
1.000 setgray
gsave
390.6 388.1 45.73 39.5 clipbox
347.558523 39.496875 m
347.558523 427.576875 l
stroke
grestore
0 setlinecap
0.333 setgray
gsave
/o {
gsave
newpath
translate
0.8 setlinewidth
1 setlinejoin
0 setlinecap
0 0 m
0 -3.5 l

gsave
0.333 setgray
fill
grestore
stroke
grestore
} bind def
347.559 39.4969 o
grestore
gsave
339.605398 24.903125 translate
0.000000 rotate
0.000000 0.000000 m /zero glyphshow
6.362305 0.000000 m /period glyphshow
9.541016 0.000000 m /eight glyphshow
grestore
2 setlinecap
1.000 setgray
gsave
390.6 388.1 45.73 39.5 clipbox
418.576705 39.496875 m
418.576705 427.576875 l
stroke
grestore
0 setlinecap
0.333 setgray
gsave
/o {
gsave
newpath
translate
0.8 setlinewidth
1 setlinejoin
0 setlinecap
0 0 m
0 -3.5 l

gsave
0.333 setgray
fill
grestore
stroke
grestore
} bind def
418.577 39.4969 o
grestore
gsave
410.623580 24.903125 translate
0.000000 rotate
0.000000 0.000000 m /one glyphshow
6.362305 0.000000 m /period glyphshow
9.541016 0.000000 m /zero glyphshow
grestore
/DejaVuSans findfont
12.000 scalefont
setfont
gsave
185.875000 9.700000 translate
0.000000 rotate
0.000000 0.000000 m /F glyphshow
6.886719 0.000000 m /a glyphshow
14.240234 0.000000 m /l glyphshow
17.574219 0.000000 m /s glyphshow
23.826172 0.000000 m /e glyphshow
31.208984 0.000000 m /space glyphshow
35.023438 0.000000 m /p glyphshow
42.640625 0.000000 m /o glyphshow
49.982422 0.000000 m /s glyphshow
56.234375 0.000000 m /i glyphshow
59.568359 0.000000 m /t glyphshow
64.273438 0.000000 m /i glyphshow
67.607422 0.000000 m /v glyphshow
74.708984 0.000000 m /e glyphshow
82.091797 0.000000 m /space glyphshow
85.906250 0.000000 m /r glyphshow
90.839844 0.000000 m /a glyphshow
98.193359 0.000000 m /t glyphshow
102.898438 0.000000 m /e glyphshow
grestore
2 setlinecap
1.000 setgray
gsave
390.6 388.1 45.73 39.5 clipbox
45.73125 57.136875 m
436.33125 57.136875 l
stroke
grestore
0 setlinecap
0.333 setgray
gsave
/o {
gsave
newpath
translate
0.8 setlinewidth
1 setlinejoin
0 setlinecap
0 0 m
-3.5 0 l

gsave
0.333 setgray
fill
grestore
stroke
grestore
} bind def
45.7313 57.1369 o
grestore
/DejaVuSans findfont
10.000 scalefont
setfont
gsave
22.825000 53.340000 translate
0.000000 rotate
0.000000 0.000000 m /zero glyphshow
6.362305 0.000000 m /period glyphshow
9.541016 0.000000 m /zero glyphshow
grestore
2 setlinecap
1.000 setgray
gsave
390.6 388.1 45.73 39.5 clipbox
45.73125 127.696875 m
436.33125 127.696875 l
stroke
grestore
0 setlinecap
0.333 setgray
gsave
/o {
gsave
newpath
translate
0.8 setlinewidth
1 setlinejoin
0 setlinecap
0 0 m
-3.5 0 l

gsave
0.333 setgray
fill
grestore
stroke
grestore
} bind def
45.7313 127.697 o
grestore
gsave
22.825000 123.900000 translate
0.000000 rotate
0.000000 0.000000 m /zero glyphshow
6.362305 0.000000 m /period glyphshow
9.541016 0.000000 m /two glyphshow
grestore
2 setlinecap
1.000 setgray
gsave
390.6 388.1 45.73 39.5 clipbox
45.73125 198.256875 m
436.33125 198.256875 l
stroke
grestore
0 setlinecap
0.333 setgray
gsave
/o {
gsave
newpath
translate
0.8 setlinewidth
1 setlinejoin
0 setlinecap
0 0 m
-3.5 0 l

gsave
0.333 setgray
fill
grestore
stroke
grestore
} bind def
45.7313 198.257 o
grestore
gsave
22.825000 194.460000 translate
0.000000 rotate
0.000000 0.000000 m /zero glyphshow
6.362305 0.000000 m /period glyphshow
9.541016 0.000000 m /four glyphshow
grestore
2 setlinecap
1.000 setgray
gsave
390.6 388.1 45.73 39.5 clipbox
45.73125 268.816875 m
436.33125 268.816875 l
stroke
grestore
0 setlinecap
0.333 setgray
gsave
/o {
gsave
newpath
translate
0.8 setlinewidth
1 setlinejoin
0 setlinecap
0 0 m
-3.5 0 l

gsave
0.333 setgray
fill
grestore
stroke
grestore
} bind def
45.7313 268.817 o
grestore
gsave
22.825000 265.020000 translate
0.000000 rotate
0.000000 0.000000 m /zero glyphshow
6.362305 0.000000 m /period glyphshow
9.541016 0.000000 m /six glyphshow
grestore
2 setlinecap
1.000 setgray
gsave
390.6 388.1 45.73 39.5 clipbox
45.73125 339.376875 m
436.33125 339.376875 l
stroke
grestore
0 setlinecap
0.333 setgray
gsave
/o {
gsave
newpath
translate
0.8 setlinewidth
1 setlinejoin
0 setlinecap
0 0 m
-3.5 0 l

gsave
0.333 setgray
fill
grestore
stroke
grestore
} bind def
45.7313 339.377 o
grestore
gsave
22.825000 335.580000 translate
0.000000 rotate
0.000000 0.000000 m /zero glyphshow
6.362305 0.000000 m /period glyphshow
9.541016 0.000000 m /eight glyphshow
grestore
2 setlinecap
1.000 setgray
gsave
390.6 388.1 45.73 39.5 clipbox
45.73125 409.936875 m
436.33125 409.936875 l
stroke
grestore
0 setlinecap
0.333 setgray
gsave
/o {
gsave
newpath
translate
0.8 setlinewidth
1 setlinejoin
0 setlinecap
0 0 m
-3.5 0 l

gsave
0.333 setgray
fill
grestore
stroke
grestore
} bind def
45.7313 409.937 o
grestore
gsave
22.825000 406.140000 translate
0.000000 rotate
0.000000 0.000000 m /one glyphshow
6.362305 0.000000 m /period glyphshow
9.541016 0.000000 m /zero glyphshow
grestore
/DejaVuSans findfont
12.000 scalefont
setfont
gsave
16.325000 180.365000 translate
90.000000 rotate
0.000000 0.000000 m /T glyphshow
7.314453 0.000000 m /r glyphshow
12.248047 0.000000 m /u glyphshow
19.853516 0.000000 m /e glyphshow
27.236328 0.000000 m /space glyphshow
31.050781 0.000000 m /p glyphshow
38.667969 0.000000 m /o glyphshow
46.009766 0.000000 m /s glyphshow
52.261719 0.000000 m /i glyphshow
55.595703 0.000000 m /t glyphshow
60.300781 0.000000 m /i glyphshow
63.634766 0.000000 m /v glyphshow
70.736328 0.000000 m /e glyphshow
78.119141 0.000000 m /space glyphshow
81.933594 0.000000 m /r glyphshow
86.867188 0.000000 m /a glyphshow
94.220703 0.000000 m /t glyphshow
98.925781 0.000000 m /e glyphshow
grestore
1.500 setlinewidth
[5.55 2.4] 0 setdash
0.000 setgray
gsave
390.6 388.1 45.73 39.5 clipbox
63.485795 57.136875 m
418.576705 409.936875 l
stroke
grestore
2.500 setlinewidth
2 setlinecap
[] 0 setdash
0.886 0.290 0.200 setrgbcolor
gsave
390.6 388.1 45.73 39.5 clipbox
63.485795 57.136875 m
67.072572 75.952875 l
70.659349 75.952875 l
74.246126 125.764875 l
77.832903 125.764875 l
81.41968 125.764875 l
85.006457 160.036875 l
88.593233 160.036875 l
92.18001 160.036875 l
95.766787 194.812875 l
99.353564 194.812875 l
102.940341 194.812875 l
106.527118 213.712875 l
110.113895 213.712875 l
113.700671 213.712875 l
117.287448 227.320875 l
120.874225 227.320875 l
124.461002 227.320875 l
128.047779 237.736875 l
131.634556 237.736875 l
135.221333 237.736875 l
138.80811 256.552875 l
142.394886 256.552875 l
145.981663 256.552875 l
149.56844 265.288875 l
153.155217 265.288875 l
156.741994 265.288875 l
160.328771 275.704875 l
163.915548 275.704875 l
167.502324 275.704875 l
171.089101 279.232875 l
174.675878 279.232875 l
178.262655 279.232875 l
181.849432 299.896875 l
185.436209 299.896875 l
189.022986 304.936875 l
192.609762 304.936875 l
196.196539 304.936875 l
199.783316 311.740875 l
203.370093 313.504875 l
206.95687 313.504875 l
210.543647 322.072875 l
214.130424 322.072875 l
217.7172 322.072875 l
221.303977 323.752875 l
224.890754 329.044875 l
228.477531 329.044875 l
232.064308 334.084875 l
235.651085 339.376875 l
239.237862 339.376875 l
242.824638 344.500875 l
246.411415 349.792875 l
249.998192 349.792875 l
253.584969 351.472875 l
257.171746 353.236875 l
260.758523 353.236875 l
264.3453 356.596875 l
267.932076 358.360875 l
271.518853 358.360875 l
275.10563 363.484875 l
278.692407 363.484875 l
282.279184 363.484875 l
285.865961 363.484875 l
289.452738 363.484875 l
293.039514 363.484875 l
296.626291 363.484875 l
300.213068 365.248875 l
303.799845 372.220875 l
307.386622 372.220875 l
310.973399 372.220875 l
314.560176 375.748875 l
318.146952 375.748875 l
321.733729 375.748875 l
325.320506 379.192875 l
328.907283 379.192875 l
332.49406 379.192875 l
336.080837 379.192875 l
339.667614 379.192875 l
343.25439 379.192875 l
346.841167 389.356875 l
350.427944 389.356875 l
354.014721 389.356875 l
357.601498 391.036875 l
361.188275 391.036875 l
364.775052 392.800875 l
368.361829 396.160875 l
371.948605 396.160875 l
375.535382 396.160875 l
379.122159 404.728875 l
382.708936 404.728875 l
386.295713 404.728875 l
389.88249 406.492875 l
393.469267 406.492875 l
397.056043 406.492875 l
400.64282 406.492875 l
404.229597 406.492875 l
407.816374 408.256875 l
411.403151 408.256875 l
414.989928 408.256875 l
418.576705 409.936875 l
stroke
grestore
1.500 setlinewidth
0 setlinecap
[5.55 2.4] 0 setdash
0.000 setgray
gsave
390.6 388.1 45.73 39.5 clipbox
63.485795 57.136875 m
418.576705 409.936875 l
stroke
grestore
2.500 setlinewidth
2 setlinecap
[] 0 setdash
0.204 0.541 0.741 setrgbcolor
gsave
390.6 388.1 45.73 39.5 clipbox
63.485795 57.136875 m
67.072572 108.234075 l
70.659349 108.234075 l
74.246126 108.234075 l
77.832903 139.809675 l
81.41968 139.809675 l
85.006457 139.809675 l
88.593233 139.809675 l
92.18001 194.376075 l
95.766787 194.376075 l
99.353564 194.376075 l
102.940341 211.780875 l
106.527118 211.780875 l
110.113895 211.780875 l
113.700671 211.780875 l
117.287448 239.240475 l
120.874225 239.240475 l
124.461002 239.240475 l
128.047779 252.352875 l
131.634556 252.352875 l
135.221333 252.352875 l
138.80811 252.352875 l
142.394886 261.172875 l
145.981663 261.172875 l
149.56844 261.172875 l
153.155217 279.988875 l
156.741994 279.988875 l
160.328771 279.988875 l
163.915548 279.988875 l
167.502324 295.864875 l
171.089101 295.864875 l
174.675878 295.864875 l
178.262655 300.274875 l
181.849432 300.274875 l
185.436209 300.274875 l
189.022986 300.274875 l
192.609762 313.269675 l
196.196539 313.269675 l
199.783316 313.269675 l
203.370093 322.030875 l
206.95687 322.030875 l
210.543647 322.030875 l
214.130424 322.030875 l
217.7172 324.970875 l
221.303977 324.970875 l
224.890754 324.970875 l
228.477531 330.674475 l
232.064308 330.674475 l
235.651085 330.674475 l
239.237862 330.674475 l
242.824638 336.436875 l
246.411415 336.436875 l
249.998192 336.436875 l
253.584969 336.436875 l
257.171746 343.669275 l
260.758523 343.669275 l
264.3453 343.669275 l
267.932076 345.139275 l
271.518853 345.139275 l
275.10563 345.139275 l
278.692407 345.139275 l
282.279184 355.135275 l
285.865961 355.135275 l
289.452738 355.135275 l
293.039514 360.956475 l
296.626291 360.956475 l
300.213068 360.956475 l
303.799845 360.956475 l
307.386622 366.718875 l
310.973399 366.718875 l
314.560176 366.718875 l
318.146952 372.598875 l
321.733729 372.598875 l
325.320506 372.598875 l
328.907283 372.598875 l
332.49406 381.183675 l
336.080837 381.183675 l
339.667614 381.183675 l
343.25439 384.064875 l
346.841167 384.064875 l
350.427944 384.064875 l
354.014721 384.064875 l
357.601498 387.004875 l
361.188275 387.004875 l
364.775052 387.004875 l
368.361829 392.826075 l
371.948605 392.826075 l
375.535382 392.826075 l
379.122159 392.826075 l
382.708936 402.763275 l
386.295713 402.763275 l
389.88249 402.763275 l
393.469267 404.233275 l
397.056043 404.233275 l
400.64282 404.233275 l
404.229597 404.233275 l
407.816374 407.114475 l
411.403151 407.114475 l
414.989928 407.114475 l
418.576705 409.936875 l
stroke
grestore
1.500 setlinewidth
0 setlinecap
[5.55 2.4] 0 setdash
0.000 setgray
gsave
390.6 388.1 45.73 39.5 clipbox
63.485795 57.136875 m
418.576705 409.936875 l
stroke
grestore
2.500 setlinewidth
2 setlinecap
[] 0 setdash
0.596 0.557 0.835 setrgbcolor
gsave
390.6 388.1 45.73 39.5 clipbox
63.485795 57.136875 m
67.072572 155.894806 l
70.659349 155.894806 l
74.246126 155.894806 l
77.832903 155.894806 l
81.41968 155.894806 l
85.006457 155.894806 l
88.593233 203.253427 l
92.18001 203.253427 l
95.766787 203.253427 l
99.353564 203.253427 l
102.940341 203.253427 l
106.527118 203.253427 l
110.113895 220.285151 l
113.700671 242.965151 l
117.287448 242.965151 l
120.874225 242.965151 l
124.461002 242.965151 l
128.047779 242.965151 l
131.634556 249.047909 l
135.221333 269.121013 l
138.80811 269.121013 l
142.394886 269.121013 l
145.981663 269.121013 l
149.56844 269.121013 l
153.155217 269.121013 l
156.741994 269.121013 l
160.328771 281.721013 l
163.915548 281.721013 l
167.502324 281.721013 l
171.089101 281.721013 l
174.675878 291.453427 l
178.262655 291.453427 l
181.849432 309.093427 l
185.436209 309.093427 l
189.022986 309.093427 l
192.609762 309.093427 l
196.196539 309.093427 l
199.783316 311.52653 l
203.370093 311.52653 l
206.95687 329.123082 l
210.543647 329.123082 l
214.130424 329.123082 l
217.7172 329.123082 l
221.303977 332.772737 l
224.890754 332.772737 l
228.477531 332.772737 l
232.064308 336.509289 l
235.651085 336.509289 l
239.237862 336.509289 l
242.824638 337.725841 l
246.411415 337.725841 l
249.998192 337.725841 l
253.584969 345.242392 l
257.171746 345.242392 l
260.758523 345.242392 l
264.3453 347.675496 l
267.932076 347.675496 l
271.518853 347.675496 l
275.10563 347.675496 l
278.692407 368.921703 l
282.279184 368.921703 l
285.865961 368.921703 l
289.452738 368.921703 l
293.039514 368.921703 l
296.626291 368.921703 l
300.213068 376.481703 l
303.799845 376.481703 l
307.386622 376.481703 l
310.973399 377.698254 l
314.560176 377.698254 l
318.146952 377.698254 l
321.733729 377.698254 l
325.320506 381.478254 l
328.907283 381.478254 l
332.49406 382.694806 l
336.080837 382.694806 l
339.667614 382.694806 l
343.25439 382.694806 l
346.841167 382.694806 l
350.427944 390.254806 l
354.014721 393.904461 l
357.601498 393.904461 l
361.188275 393.904461 l
364.775052 393.904461 l
368.361829 393.904461 l
371.948605 397.684461 l
375.535382 397.684461 l
379.122159 397.684461 l
382.708936 397.684461 l
386.295713 397.684461 l
389.88249 397.684461 l
393.469267 397.684461 l
397.056043 408.720323 l
400.64282 408.720323 l
404.229597 408.720323 l
407.816374 408.720323 l
411.403151 408.720323 l
414.989928 408.720323 l
418.576705 409.936875 l
stroke
grestore
1.000 setlinewidth
0 setlinejoin
[] 0 setdash
1.000 setgray
gsave
45.73125 39.496875 m
45.73125 427.576875 l
stroke
grestore
gsave
436.33125 39.496875 m
436.33125 427.576875 l
stroke
grestore
gsave
45.73125 39.496875 m
436.33125 39.496875 l
stroke
grestore
gsave
45.73125 427.576875 m
436.33125 427.576875 l
stroke
grestore
0.000 setgray
/DejaVuSans findfont
14.400 scalefont
setfont
gsave
117.687500 433.576875 translate
0.000000 rotate
0.000000 0.000000 m /M glyphshow
12.402649 0.000000 m /e glyphshow
21.246643 0.000000 m /a glyphshow
30.055542 0.000000 m /n glyphshow
39.166260 0.000000 m /space glyphshow
43.735657 0.000000 m /R glyphshow
53.723755 0.000000 m /O glyphshow
65.038452 0.000000 m /C glyphshow
75.075684 0.000000 m /space glyphshow
79.645081 0.000000 m /hyphen glyphshow
84.832153 0.000000 m /space glyphshow
89.401550 0.000000 m /S glyphshow
98.526306 0.000000 m /V glyphshow
108.359985 0.000000 m /M glyphshow
120.762634 0.000000 m /space glyphshow
125.332031 0.000000 m /hyphen glyphshow
130.519104 0.000000 m /space glyphshow
135.088501 0.000000 m /S glyphshow
144.213257 0.000000 m /o glyphshow
153.008118 0.000000 m /b glyphshow
162.132874 0.000000 m /e glyphshow
170.976868 0.000000 m /l glyphshow
174.970703 0.000000 m /space glyphshow
179.540100 0.000000 m /hyphen glyphshow
184.727173 0.000000 m /space glyphshow
189.296570 0.000000 m /one glyphshow
198.442383 0.000000 m /zero glyphshow
207.588196 0.000000 m /space glyphshow
212.157593 0.000000 m /f glyphshow
217.218323 0.000000 m /o glyphshow
226.013184 0.000000 m /l glyphshow
230.007019 0.000000 m /d glyphshow
239.131775 0.000000 m /s glyphshow
grestore
0.500 setlinewidth
0 setlinecap
0.800 setgray
gsave
52.73125 375.56125 m
206.3875 375.56125 l
207.720833 375.56125 208.3875 376.227917 208.3875 377.56125 c
208.3875 420.576875 l
208.3875 421.910208 207.720833 422.576875 206.3875 422.576875 c
52.73125 422.576875 l
51.397917 422.576875 50.73125 421.910208 50.73125 420.576875 c
50.73125 377.56125 l
50.73125 376.227917 51.397917 375.56125 52.73125 375.56125 c
cl
gsave
0.898 setgray
fill
grestore
stroke
grestore
2.500 setlinewidth
1 setlinejoin
2 setlinecap
[] 0 setdash
0.886 0.290 0.200 setrgbcolor
gsave
54.73125 414.483125 m
74.73125 414.483125 l
stroke
grestore
0.000 setgray
/DejaVuSans findfont
10.000 scalefont
setfont
gsave
82.731250 410.983125 translate
0.000000 rotate
0.000000 0.000000 m /two glyphshow
6.362305 0.000000 m /four glyphshow
12.724609 0.000000 m /space glyphshow
15.903320 0.000000 m /M glyphshow
24.531250 0.000000 m /o glyphshow
30.649414 0.000000 m /n glyphshow
36.987305 0.000000 m /t glyphshow
40.908203 0.000000 m /h glyphshow
47.246094 0.000000 m /s glyphshow
52.456055 0.000000 m /space glyphshow
55.634766 0.000000 m /parenleft glyphshow
59.536133 0.000000 m /A glyphshow
66.376953 0.000000 m /U glyphshow
73.696289 0.000000 m /C glyphshow
80.678711 0.000000 m /space glyphshow
83.857422 0.000000 m /equal glyphshow
92.236328 0.000000 m /space glyphshow
95.415039 0.000000 m /zero glyphshow
101.777344 0.000000 m /period glyphshow
104.956055 0.000000 m /seven glyphshow
111.318359 0.000000 m /three glyphshow
117.680664 0.000000 m /parenright glyphshow
grestore
0.204 0.541 0.741 setrgbcolor
gsave
54.73125 399.81125 m
74.73125 399.81125 l
stroke
grestore
0.000 setgray
gsave
82.731250 396.311250 translate
0.000000 rotate
0.000000 0.000000 m /three glyphshow
6.362305 0.000000 m /six glyphshow
12.724609 0.000000 m /space glyphshow
15.903320 0.000000 m /M glyphshow
24.531250 0.000000 m /o glyphshow
30.649414 0.000000 m /n glyphshow
36.987305 0.000000 m /t glyphshow
40.908203 0.000000 m /h glyphshow
47.246094 0.000000 m /s glyphshow
52.456055 0.000000 m /space glyphshow
55.634766 0.000000 m /parenleft glyphshow
59.536133 0.000000 m /A glyphshow
66.376953 0.000000 m /U glyphshow
73.696289 0.000000 m /C glyphshow
80.678711 0.000000 m /space glyphshow
83.857422 0.000000 m /equal glyphshow
92.236328 0.000000 m /space glyphshow
95.415039 0.000000 m /zero glyphshow
101.777344 0.000000 m /period glyphshow
104.956055 0.000000 m /seven glyphshow
111.318359 0.000000 m /three glyphshow
117.680664 0.000000 m /parenright glyphshow
grestore
0.596 0.557 0.835 setrgbcolor
gsave
54.73125 385.139375 m
74.73125 385.139375 l
stroke
grestore
0.000 setgray
gsave
82.731250 381.639375 translate
0.000000 rotate
0.000000 0.000000 m /six glyphshow
6.362305 0.000000 m /zero glyphshow
12.724609 0.000000 m /space glyphshow
15.903320 0.000000 m /M glyphshow
24.531250 0.000000 m /o glyphshow
30.649414 0.000000 m /n glyphshow
36.987305 0.000000 m /t glyphshow
40.908203 0.000000 m /h glyphshow
47.246094 0.000000 m /s glyphshow
52.456055 0.000000 m /space glyphshow
55.634766 0.000000 m /parenleft glyphshow
59.536133 0.000000 m /A glyphshow
66.376953 0.000000 m /U glyphshow
73.696289 0.000000 m /C glyphshow
80.678711 0.000000 m /space glyphshow
83.857422 0.000000 m /equal glyphshow
92.236328 0.000000 m /space glyphshow
95.415039 0.000000 m /zero glyphshow
101.777344 0.000000 m /period glyphshow
104.956055 0.000000 m /seven glyphshow
111.318359 0.000000 m /five glyphshow
117.680664 0.000000 m /parenright glyphshow
grestore

end
showpage
