%!PS-Adobe-3.0 EPSF-3.0
%%Title: /home/jullygh/sssilvar/Documents/Dataset/ADNI_FS_registered_flirt/brain_models/classification/features_36_months.eps
%%Creator: matplotlib version 3.0.3, http://matplotlib.org/
%%CreationDate: Mon Aug 12 02:50:02 2019
%%Orientation: portrait
%%BoundingBox: -121 141 733 650
%%EndComments
%%BeginProlog
/mpldict 8 dict def
mpldict begin
/m { moveto } bind def
/l { lineto } bind def
/r { rlineto } bind def
/c { curveto } bind def
/cl { closepath } bind def
/box {
m
1 index 0 r
0 exch r
neg 0 r
cl
} bind def
/clipbox {
box
clip
newpath
} bind def
%!PS-Adobe-3.0 Resource-Font
%%Title: DejaVu Sans
%%Copyright: Copyright (c) 2003 by Bitstream, Inc. All Rights Reserved. Copyright (c) 2006 by Tavmjong Bah. All Rights Reserved. DejaVu changes are in public domain 
%%Creator: Converted from TrueType to type 3 by PPR
25 dict begin
/_d{bind def}bind def
/_m{moveto}_d
/_l{lineto}_d
/_cl{closepath eofill}_d
/_c{curveto}_d
/_sc{7 -1 roll{setcachedevice}{pop pop pop pop pop pop}ifelse}_d
/_e{exec}_d
/FontName /DejaVuSans def
/PaintType 0 def
/FontMatrix[.001 0 0 .001 0 0]def
/FontBBox[-1021 -463 1793 1232]def
/FontType 3 def
/Encoding [ /space /period /zero /one /two /three /four /five /six /seven /eight /nine /equal /A /C /F /O /R /T /U /a /c /e /i /l /o /p /r /s /t /u /v ] def
/FontInfo 10 dict dup begin
/FamilyName (DejaVu Sans) def
/FullName (DejaVu Sans) def
/Notice (Copyright (c) 2003 by Bitstream, Inc. All Rights Reserved. Copyright (c) 2006 by Tavmjong Bah. All Rights Reserved. DejaVu changes are in public domain ) def
/Weight (Book) def
/Version (Version 2.35) def
/ItalicAngle 0.0 def
/isFixedPitch false def
/UnderlinePosition -130 def
/UnderlineThickness 90 def
end readonly def
/CharStrings 33 dict dup begin
/.notdef 0 def
/space{318 0 0 0 0 0 _sc
}_d
/period{318 0 107 0 210 124 _sc
107 124 _m
210 124 _l
210 0 _l
107 0 _l
107 124 _l
_cl}_d
/zero{636 0 66 -13 570 742 _sc
318 664 _m
267 664 229 639 203 589 _c
177 539 165 464 165 364 _c
165 264 177 189 203 139 _c
229 89 267 64 318 64 _c
369 64 407 89 433 139 _c
458 189 471 264 471 364 _c
471 464 458 539 433 589 _c
407 639 369 664 318 664 _c
318 742 _m
399 742 461 709 505 645 _c
548 580 570 486 570 364 _c
570 241 548 147 505 83 _c
461 19 399 -13 318 -13 _c
236 -13 173 19 130 83 _c
87 147 66 241 66 364 _c
66 486 87 580 130 645 _c
173 709 236 742 318 742 _c
_cl}_d
/one{636 0 110 0 544 729 _sc
124 83 _m
285 83 _l
285 639 _l
110 604 _l
110 694 _l
284 729 _l
383 729 _l
383 83 _l
544 83 _l
544 0 _l
124 0 _l
124 83 _l
_cl}_d
/two{{636 0 73 0 536 742 _sc
192 83 _m
536 83 _l
536 0 _l
73 0 _l
73 83 _l
110 121 161 173 226 239 _c
290 304 331 346 348 365 _c
380 400 402 430 414 455 _c
426 479 433 504 433 528 _c
433 566 419 598 392 622 _c
365 646 330 659 286 659 _c
255 659 222 653 188 643 _c
154 632 117 616 78 594 _c
78 694 _l
118 710 155 722 189 730 _c
223 738 255 742 284 742 _c
}_e{359 742 419 723 464 685 _c
509 647 532 597 532 534 _c
532 504 526 475 515 449 _c
504 422 484 390 454 354 _c
446 344 420 317 376 272 _c
332 227 271 164 192 83 _c
_cl}_e}_d
/three{{636 0 76 -13 556 742 _sc
406 393 _m
453 383 490 362 516 330 _c
542 298 556 258 556 212 _c
556 140 531 84 482 45 _c
432 6 362 -13 271 -13 _c
240 -13 208 -10 176 -4 _c
144 1 110 10 76 22 _c
76 117 _l
103 101 133 89 166 81 _c
198 73 232 69 268 69 _c
330 69 377 81 409 105 _c
441 129 458 165 458 212 _c
458 254 443 288 413 312 _c
383 336 341 349 287 349 _c
}_e{202 349 _l
202 430 _l
291 430 _l
339 430 376 439 402 459 _c
428 478 441 506 441 543 _c
441 580 427 609 401 629 _c
374 649 336 659 287 659 _c
260 659 231 656 200 650 _c
169 644 135 635 98 623 _c
98 711 _l
135 721 170 729 203 734 _c
235 739 266 742 296 742 _c
370 742 429 725 473 691 _c
517 657 539 611 539 553 _c
539 513 527 479 504 451 _c
481 423 448 403 406 393 _c
_cl}_e}_d
/four{636 0 49 0 580 729 _sc
378 643 _m
129 254 _l
378 254 _l
378 643 _l
352 729 _m
476 729 _l
476 254 _l
580 254 _l
580 172 _l
476 172 _l
476 0 _l
378 0 _l
378 172 _l
49 172 _l
49 267 _l
352 729 _l
_cl}_d
/five{{636 0 77 -13 549 729 _sc
108 729 _m
495 729 _l
495 646 _l
198 646 _l
198 467 _l
212 472 227 476 241 478 _c
255 480 270 482 284 482 _c
365 482 429 459 477 415 _c
525 370 549 310 549 234 _c
549 155 524 94 475 51 _c
426 8 357 -13 269 -13 _c
238 -13 207 -10 175 -6 _c
143 -1 111 6 77 17 _c
77 116 _l
106 100 136 88 168 80 _c
199 72 232 69 267 69 _c
}_e{323 69 368 83 401 113 _c
433 143 450 183 450 234 _c
450 284 433 324 401 354 _c
368 384 323 399 267 399 _c
241 399 214 396 188 390 _c
162 384 135 375 108 363 _c
108 729 _l
_cl}_e}_d
/six{{636 0 70 -13 573 742 _sc
330 404 _m
286 404 251 388 225 358 _c
199 328 186 286 186 234 _c
186 181 199 139 225 109 _c
251 79 286 64 330 64 _c
374 64 409 79 435 109 _c
461 139 474 181 474 234 _c
474 286 461 328 435 358 _c
409 388 374 404 330 404 _c
526 713 _m
526 623 _l
501 635 476 644 451 650 _c
425 656 400 659 376 659 _c
310 659 260 637 226 593 _c
}_e{192 549 172 482 168 394 _c
187 422 211 444 240 459 _c
269 474 301 482 336 482 _c
409 482 467 459 509 415 _c
551 371 573 310 573 234 _c
573 159 550 99 506 54 _c
462 9 403 -13 330 -13 _c
246 -13 181 19 137 83 _c
92 147 70 241 70 364 _c
70 479 97 571 152 639 _c
206 707 280 742 372 742 _c
396 742 421 739 447 735 _c
472 730 498 723 526 713 _c
_cl}_e}_d
/seven{636 0 82 0 551 729 _sc
82 729 _m
551 729 _l
551 687 _l
286 0 _l
183 0 _l
432 646 _l
82 646 _l
82 729 _l
_cl}_d
/eight{{636 0 68 -13 568 742 _sc
318 346 _m
271 346 234 333 207 308 _c
180 283 167 249 167 205 _c
167 161 180 126 207 101 _c
234 76 271 64 318 64 _c
364 64 401 76 428 102 _c
455 127 469 161 469 205 _c
469 249 455 283 429 308 _c
402 333 365 346 318 346 _c
219 388 _m
177 398 144 418 120 447 _c
96 476 85 511 85 553 _c
85 611 105 657 147 691 _c
188 725 245 742 318 742 _c
}_e{390 742 447 725 489 691 _c
530 657 551 611 551 553 _c
551 511 539 476 515 447 _c
491 418 459 398 417 388 _c
464 377 501 355 528 323 _c
554 291 568 251 568 205 _c
568 134 546 80 503 43 _c
459 5 398 -13 318 -13 _c
237 -13 175 5 132 43 _c
89 80 68 134 68 205 _c
68 251 81 291 108 323 _c
134 355 171 377 219 388 _c
183 544 _m
183 506 194 476 218 455 _c
}_e{242 434 275 424 318 424 _c
360 424 393 434 417 455 _c
441 476 453 506 453 544 _c
453 582 441 611 417 632 _c
393 653 360 664 318 664 _c
275 664 242 653 218 632 _c
194 611 183 582 183 544 _c
_cl}_e}_d
/nine{{636 0 63 -13 566 742 _sc
110 15 _m
110 105 _l
134 93 159 84 185 78 _c
210 72 235 69 260 69 _c
324 69 374 90 408 134 _c
442 178 462 244 468 334 _c
448 306 424 284 396 269 _c
367 254 335 247 300 247 _c
226 247 168 269 126 313 _c
84 357 63 417 63 494 _c
63 568 85 628 129 674 _c
173 719 232 742 306 742 _c
390 742 455 709 499 645 _c
543 580 566 486 566 364 _c
}_e{566 248 538 157 484 89 _c
429 21 356 -13 264 -13 _c
239 -13 214 -10 189 -6 _c
163 -2 137 5 110 15 _c
306 324 _m
350 324 385 339 411 369 _c
437 399 450 441 450 494 _c
450 546 437 588 411 618 _c
385 648 350 664 306 664 _c
262 664 227 648 201 618 _c
175 588 162 546 162 494 _c
162 441 175 399 201 369 _c
227 339 262 324 306 324 _c
_cl}_e}_d
/equal{838 0 106 172 732 454 _sc
106 454 _m
732 454 _l
732 372 _l
106 372 _l
106 454 _l
106 255 _m
732 255 _l
732 172 _l
106 172 _l
106 255 _l
_cl}_d
/A{684 0 8 0 676 729 _sc
342 632 _m
208 269 _l
476 269 _l
342 632 _l
286 729 _m
398 729 _l
676 0 _l
573 0 _l
507 187 _l
178 187 _l
112 0 _l
8 0 _l
286 729 _l
_cl}_d
/C{{698 0 56 -13 644 742 _sc
644 673 _m
644 569 _l
610 599 575 622 537 638 _c
499 653 460 661 418 661 _c
334 661 270 635 226 584 _c
182 533 160 460 160 364 _c
160 268 182 194 226 143 _c
270 92 334 67 418 67 _c
460 67 499 74 537 90 _c
575 105 610 128 644 159 _c
644 56 _l
609 32 572 15 534 4 _c
496 -7 455 -13 412 -13 _c
302 -13 215 20 151 87 _c
}_e{87 154 56 246 56 364 _c
56 481 87 573 151 641 _c
215 708 302 742 412 742 _c
456 742 497 736 535 725 _c
573 713 610 696 644 673 _c
_cl}_e}_d
/F{575 0 98 0 517 729 _sc
98 729 _m
517 729 _l
517 646 _l
197 646 _l
197 431 _l
486 431 _l
486 348 _l
197 348 _l
197 0 _l
98 0 _l
98 729 _l
_cl}_d
/O{787 0 56 -13 731 742 _sc
394 662 _m
322 662 265 635 223 582 _c
181 528 160 456 160 364 _c
160 272 181 199 223 146 _c
265 92 322 66 394 66 _c
465 66 522 92 564 146 _c
606 199 627 272 627 364 _c
627 456 606 528 564 582 _c
522 635 465 662 394 662 _c
394 742 _m
496 742 577 707 639 639 _c
700 571 731 479 731 364 _c
731 248 700 157 639 89 _c
577 21 496 -13 394 -13 _c
291 -13 209 21 148 89 _c
86 157 56 248 56 364 _c
56 479 86 571 148 639 _c
209 707 291 742 394 742 _c
_cl}_d
/R{{695 0 98 0 666 729 _sc
444 342 _m
465 334 486 319 506 296 _c
526 272 546 240 566 199 _c
666 0 _l
560 0 _l
467 187 _l
443 235 419 268 397 284 _c
374 300 343 308 304 308 _c
197 308 _l
197 0 _l
98 0 _l
98 729 _l
321 729 _l
404 729 466 711 507 677 _c
548 642 569 589 569 519 _c
569 473 558 434 537 404 _c
515 374 484 353 444 342 _c
197 648 _m
197 389 _l
321 389 _l
}_e{368 389 404 400 428 422 _c
452 444 465 476 465 519 _c
465 561 452 593 428 615 _c
404 637 368 648 321 648 _c
197 648 _l
_cl}_e}_d
/T{611 0 -2 0 614 729 _sc
-2 729 _m
614 729 _l
614 646 _l
355 646 _l
355 0 _l
256 0 _l
256 646 _l
-2 646 _l
-2 729 _l
_cl}_d
/U{732 0 87 -13 645 729 _sc
87 729 _m
186 729 _l
186 286 _l
186 208 200 151 228 117 _c
256 83 302 66 366 66 _c
429 66 475 83 503 117 _c
531 151 546 208 546 286 _c
546 729 _l
645 729 _l
645 274 _l
645 178 621 107 574 59 _c
527 11 458 -13 366 -13 _c
274 -13 204 11 157 59 _c
110 107 87 178 87 274 _c
87 729 _l
_cl}_d
/a{{613 0 60 -13 522 560 _sc
343 275 _m
270 275 220 266 192 250 _c
164 233 150 205 150 165 _c
150 133 160 107 181 89 _c
202 70 231 61 267 61 _c
317 61 357 78 387 114 _c
417 149 432 196 432 255 _c
432 275 _l
343 275 _l
522 312 _m
522 0 _l
432 0 _l
432 83 _l
411 49 385 25 355 10 _c
325 -5 287 -13 243 -13 _c
187 -13 142 2 109 33 _c
76 64 60 106 60 159 _c
}_e{60 220 80 266 122 298 _c
163 329 224 345 306 345 _c
432 345 _l
432 354 _l
432 395 418 427 391 450 _c
364 472 326 484 277 484 _c
245 484 215 480 185 472 _c
155 464 127 453 100 439 _c
100 522 _l
132 534 164 544 195 550 _c
226 556 256 560 286 560 _c
365 560 424 539 463 498 _c
502 457 522 395 522 312 _c
_cl}_e}_d
/c{{550 0 55 -13 488 560 _sc
488 526 _m
488 442 _l
462 456 437 466 411 473 _c
385 480 360 484 334 484 _c
276 484 230 465 198 428 _c
166 391 150 339 150 273 _c
150 206 166 154 198 117 _c
230 80 276 62 334 62 _c
360 62 385 65 411 72 _c
437 79 462 90 488 104 _c
488 21 _l
462 9 436 0 410 -5 _c
383 -10 354 -13 324 -13 _c
242 -13 176 12 128 64 _c
}_e{79 115 55 185 55 273 _c
55 362 79 432 128 483 _c
177 534 244 560 330 560 _c
358 560 385 557 411 551 _c
437 545 463 537 488 526 _c
_cl}_e}_d
/e{{615 0 55 -13 562 560 _sc
562 296 _m
562 252 _l
149 252 _l
153 190 171 142 205 110 _c
238 78 284 62 344 62 _c
378 62 412 66 444 74 _c
476 82 509 95 541 113 _c
541 28 _l
509 14 476 3 442 -3 _c
408 -9 373 -13 339 -13 _c
251 -13 182 12 131 62 _c
80 112 55 181 55 268 _c
55 357 79 428 127 481 _c
175 533 241 560 323 560 _c
397 560 455 536 498 489 _c
}_e{540 441 562 377 562 296 _c
472 322 _m
471 371 457 410 431 440 _c
404 469 368 484 324 484 _c
274 484 234 469 204 441 _c
174 413 156 373 152 322 _c
472 322 _l
_cl}_e}_d
/i{278 0 94 0 184 760 _sc
94 547 _m
184 547 _l
184 0 _l
94 0 _l
94 547 _l
94 760 _m
184 760 _l
184 646 _l
94 646 _l
94 760 _l
_cl}_d
/l{278 0 94 0 184 760 _sc
94 760 _m
184 760 _l
184 0 _l
94 0 _l
94 760 _l
_cl}_d
/o{612 0 55 -13 557 560 _sc
306 484 _m
258 484 220 465 192 427 _c
164 389 150 338 150 273 _c
150 207 163 156 191 118 _c
219 80 257 62 306 62 _c
354 62 392 80 420 118 _c
448 156 462 207 462 273 _c
462 337 448 389 420 427 _c
392 465 354 484 306 484 _c
306 560 _m
384 560 445 534 490 484 _c
534 433 557 363 557 273 _c
557 183 534 113 490 63 _c
445 12 384 -13 306 -13 _c
227 -13 165 12 121 63 _c
77 113 55 183 55 273 _c
55 363 77 433 121 484 _c
165 534 227 560 306 560 _c
_cl}_d
/p{{635 0 91 -207 580 560 _sc
181 82 _m
181 -207 _l
91 -207 _l
91 547 _l
181 547 _l
181 464 _l
199 496 223 520 252 536 _c
281 552 316 560 356 560 _c
422 560 476 533 518 481 _c
559 428 580 359 580 273 _c
580 187 559 117 518 65 _c
476 13 422 -13 356 -13 _c
316 -13 281 -5 252 10 _c
223 25 199 49 181 82 _c
487 273 _m
487 339 473 390 446 428 _c
418 466 381 485 334 485 _c
}_e{286 485 249 466 222 428 _c
194 390 181 339 181 273 _c
181 207 194 155 222 117 _c
249 79 286 61 334 61 _c
381 61 418 79 446 117 _c
473 155 487 207 487 273 _c
_cl}_e}_d
/r{411 0 91 0 411 560 _sc
411 463 _m
401 469 390 473 378 476 _c
366 478 353 480 339 480 _c
288 480 249 463 222 430 _c
194 397 181 350 181 288 _c
181 0 _l
91 0 _l
91 547 _l
181 547 _l
181 462 _l
199 495 224 520 254 536 _c
284 552 321 560 365 560 _c
371 560 378 559 386 559 _c
393 558 401 557 411 555 _c
411 463 _l
_cl}_d
/s{{521 0 54 -13 472 560 _sc
443 531 _m
443 446 _l
417 458 391 468 364 475 _c
336 481 308 485 279 485 _c
234 485 200 478 178 464 _c
156 450 145 430 145 403 _c
145 382 153 366 169 354 _c
185 342 217 330 265 320 _c
296 313 _l
360 299 405 279 432 255 _c
458 230 472 195 472 151 _c
472 100 452 60 412 31 _c
372 1 316 -13 246 -13 _c
216 -13 186 -10 154 -5 _c
}_e{122 0 89 8 54 20 _c
54 113 _l
87 95 120 82 152 74 _c
184 65 216 61 248 61 _c
290 61 323 68 346 82 _c
368 96 380 117 380 144 _c
380 168 371 187 355 200 _c
339 213 303 226 247 238 _c
216 245 _l
160 257 119 275 95 299 _c
70 323 58 356 58 399 _c
58 450 76 490 112 518 _c
148 546 200 560 268 560 _c
301 560 332 557 362 552 _c
391 547 418 540 443 531 _c
}_e{_cl}_e}_d
/t{392 0 27 0 368 702 _sc
183 702 _m
183 547 _l
368 547 _l
368 477 _l
183 477 _l
183 180 _l
183 135 189 106 201 94 _c
213 81 238 75 276 75 _c
368 75 _l
368 0 _l
276 0 _l
206 0 158 13 132 39 _c
106 65 93 112 93 180 _c
93 477 _l
27 477 _l
27 547 _l
93 547 _l
93 702 _l
183 702 _l
_cl}_d
/u{634 0 85 -13 543 560 _sc
85 216 _m
85 547 _l
175 547 _l
175 219 _l
175 167 185 129 205 103 _c
225 77 255 64 296 64 _c
344 64 383 79 411 110 _c
439 141 453 183 453 237 _c
453 547 _l
543 547 _l
543 0 _l
453 0 _l
453 84 _l
431 50 405 26 377 10 _c
348 -5 315 -13 277 -13 _c
214 -13 166 6 134 45 _c
101 83 85 140 85 216 _c
311 560 _m
311 560 _l
_cl}_d
/v{592 0 30 0 562 547 _sc
30 547 _m
125 547 _l
296 88 _l
467 547 _l
562 547 _l
357 0 _l
235 0 _l
30 547 _l
_cl}_d
end readonly def

/BuildGlyph
 {exch begin
 CharStrings exch
 2 copy known not{pop /.notdef}if
 true 3 1 roll get exec
 end}_d

/BuildChar {
 1 index /Encoding get exch get
 1 index /BuildGlyph get exec
}_d

FontName currentdict end definefont pop
end
%%EndProlog
mpldict begin
-121.733 141.049 translate
855.467 509.901 0 0 clipbox
gsave
0 0 m
855.466875 0 l
855.466875 509.9015 l
0 509.9015 l
cl
1.000 setgray
fill
grestore
gsave
44.746875 38.5125 m
848.266875 38.5125 l
848.266875 487.5765 l
44.746875 487.5765 l
cl
0.918 0.918 0.949 setrgbcolor
fill
grestore
1.000 setlinewidth
1 setlinejoin
1 setlinecap
[] 0 setdash
1.000 setgray
gsave
803.5 449.1 44.75 38.51 clipbox
81.270511 38.5125 m
81.270511 487.5765 l
stroke
grestore
0.150 setgray
/DejaVuSans findfont
10.000 scalefont
setfont
gsave
73.317386 23.918750 translate
0.000000 rotate
0.000000 0.000000 m /zero glyphshow
6.362305 0.000000 m /period glyphshow
9.541016 0.000000 m /zero glyphshow
grestore
1.000 setgray
gsave
803.5 449.1 44.75 38.51 clipbox
227.365057 38.5125 m
227.365057 487.5765 l
stroke
grestore
0.150 setgray
gsave
219.411932 23.918750 translate
0.000000 rotate
0.000000 0.000000 m /zero glyphshow
6.362305 0.000000 m /period glyphshow
9.541016 0.000000 m /two glyphshow
grestore
1.000 setgray
gsave
803.5 449.1 44.75 38.51 clipbox
373.459602 38.5125 m
373.459602 487.5765 l
stroke
grestore
0.150 setgray
gsave
365.506477 23.918750 translate
0.000000 rotate
0.000000 0.000000 m /zero glyphshow
6.362305 0.000000 m /period glyphshow
9.541016 0.000000 m /four glyphshow
grestore
1.000 setgray
gsave
803.5 449.1 44.75 38.51 clipbox
519.554148 38.5125 m
519.554148 487.5765 l
stroke
grestore
0.150 setgray
gsave
511.601023 23.918750 translate
0.000000 rotate
0.000000 0.000000 m /zero glyphshow
6.362305 0.000000 m /period glyphshow
9.541016 0.000000 m /six glyphshow
grestore
1.000 setgray
gsave
803.5 449.1 44.75 38.51 clipbox
665.648693 38.5125 m
665.648693 487.5765 l
stroke
grestore
0.150 setgray
gsave
657.695568 23.918750 translate
0.000000 rotate
0.000000 0.000000 m /zero glyphshow
6.362305 0.000000 m /period glyphshow
9.541016 0.000000 m /eight glyphshow
grestore
1.000 setgray
gsave
803.5 449.1 44.75 38.51 clipbox
811.743239 38.5125 m
811.743239 487.5765 l
stroke
grestore
0.150 setgray
gsave
803.790114 23.918750 translate
0.000000 rotate
0.000000 0.000000 m /one glyphshow
6.362305 0.000000 m /period glyphshow
9.541016 0.000000 m /zero glyphshow
grestore
/DejaVuSans findfont
11.000 scalefont
setfont
gsave
395.944375 9.481250 translate
0.000000 rotate
0.000000 0.000000 m /F glyphshow
6.311523 0.000000 m /a glyphshow
13.052246 0.000000 m /l glyphshow
16.108398 0.000000 m /s glyphshow
21.839355 0.000000 m /e glyphshow
28.606934 0.000000 m /space glyphshow
32.103516 0.000000 m /p glyphshow
39.085938 0.000000 m /o glyphshow
45.815918 0.000000 m /s glyphshow
51.546875 0.000000 m /i glyphshow
54.603027 0.000000 m /t glyphshow
58.916016 0.000000 m /i glyphshow
61.972168 0.000000 m /v glyphshow
68.481934 0.000000 m /e glyphshow
75.249512 0.000000 m /space glyphshow
78.746094 0.000000 m /r glyphshow
83.268555 0.000000 m /a glyphshow
90.009277 0.000000 m /t glyphshow
94.322266 0.000000 m /e glyphshow
grestore
1.000 setgray
gsave
803.5 449.1 44.75 38.51 clipbox
44.746875 58.9245 m
848.266875 58.9245 l
stroke
grestore
0.150 setgray
/DejaVuSans findfont
10.000 scalefont
setfont
gsave
21.840625 55.127625 translate
0.000000 rotate
0.000000 0.000000 m /zero glyphshow
6.362305 0.000000 m /period glyphshow
9.541016 0.000000 m /zero glyphshow
grestore
1.000 setgray
gsave
803.5 449.1 44.75 38.51 clipbox
44.746875 140.5725 m
848.266875 140.5725 l
stroke
grestore
0.150 setgray
gsave
21.840625 136.775625 translate
0.000000 rotate
0.000000 0.000000 m /zero glyphshow
6.362305 0.000000 m /period glyphshow
9.541016 0.000000 m /two glyphshow
grestore
1.000 setgray
gsave
803.5 449.1 44.75 38.51 clipbox
44.746875 222.2205 m
848.266875 222.2205 l
stroke
grestore
0.150 setgray
gsave
21.840625 218.423625 translate
0.000000 rotate
0.000000 0.000000 m /zero glyphshow
6.362305 0.000000 m /period glyphshow
9.541016 0.000000 m /four glyphshow
grestore
1.000 setgray
gsave
803.5 449.1 44.75 38.51 clipbox
44.746875 303.8685 m
848.266875 303.8685 l
stroke
grestore
0.150 setgray
gsave
21.840625 300.071625 translate
0.000000 rotate
0.000000 0.000000 m /zero glyphshow
6.362305 0.000000 m /period glyphshow
9.541016 0.000000 m /six glyphshow
grestore
1.000 setgray
gsave
803.5 449.1 44.75 38.51 clipbox
44.746875 385.5165 m
848.266875 385.5165 l
stroke
grestore
0.150 setgray
gsave
21.840625 381.719625 translate
0.000000 rotate
0.000000 0.000000 m /zero glyphshow
6.362305 0.000000 m /period glyphshow
9.541016 0.000000 m /eight glyphshow
grestore
1.000 setgray
gsave
803.5 449.1 44.75 38.51 clipbox
44.746875 467.1645 m
848.266875 467.1645 l
stroke
grestore
0.150 setgray
gsave
21.840625 463.367625 translate
0.000000 rotate
0.000000 0.000000 m /one glyphshow
6.362305 0.000000 m /period glyphshow
9.541016 0.000000 m /zero glyphshow
grestore
/DejaVuSans findfont
11.000 scalefont
setfont
gsave
15.559375 214.302313 translate
90.000000 rotate
0.000000 0.000000 m /T glyphshow
6.703613 0.000000 m /r glyphshow
11.226074 0.000000 m /u glyphshow
18.197754 0.000000 m /e glyphshow
24.965332 0.000000 m /space glyphshow
28.461914 0.000000 m /p glyphshow
35.444336 0.000000 m /o glyphshow
42.174316 0.000000 m /s glyphshow
47.905273 0.000000 m /i glyphshow
50.961426 0.000000 m /t glyphshow
55.274414 0.000000 m /i glyphshow
58.330566 0.000000 m /v glyphshow
64.840332 0.000000 m /e glyphshow
71.607910 0.000000 m /space glyphshow
75.104492 0.000000 m /r glyphshow
79.626953 0.000000 m /a glyphshow
86.367676 0.000000 m /t glyphshow
90.680664 0.000000 m /e glyphshow
grestore
1.750 setlinewidth
0 setlinecap
[6.475 2.8] 0 setdash
0.000 setgray
gsave
803.5 449.1 44.75 38.51 clipbox
81.270511 58.9245 m
811.743239 467.1645 l
stroke
grestore
1 setlinecap
[] 0 setdash
0.298 0.447 0.690 setrgbcolor
gsave
803.5 449.1 44.75 38.51 clipbox
81.270511 58.9245 m
81.270511 75.2541 l
131.647941 75.2541 l
156.836656 91.5837 l
156.836656 140.5725 l
207.214085 140.5725 l
207.214085 156.9021 l
232.4028 156.9021 l
232.4028 173.2317 l
232.4028 205.8909 l
232.4028 222.2205 l
282.780229 222.2205 l
307.968944 222.2205 l
333.157659 238.5501 l
333.157659 254.8797 l
408.723803 271.2093 l
433.912518 271.2093 l
433.912518 287.5389 l
459.101232 287.5389 l
484.289947 336.5277 l
484.289947 352.8573 l
484.289947 385.5165 l
509.478662 385.5165 l
534.667377 401.8461 l
585.044806 401.8461 l
610.233521 418.1757 l
685.799665 418.1757 l
685.799665 434.5053 l
811.743239 434.5053 l
811.743239 467.1645 l
stroke
grestore
0.333 0.659 0.408 setrgbcolor
gsave
803.5 449.1 44.75 38.51 clipbox
81.270511 58.9245 m
81.270511 91.5837 l
81.270511 140.5725 l
81.270511 173.2317 l
133.447135 173.2317 l
133.447135 189.5613 l
185.623758 189.5613 l
185.623758 205.8909 l
185.623758 238.5501 l
211.71207 238.5501 l
263.888693 271.2093 l
289.977005 271.2093 l
342.153628 303.8685 l
342.153628 320.1981 l
394.330252 352.8573 l
420.418563 352.8573 l
472.595187 352.8573 l
498.683498 352.8573 l
498.683498 385.5165 l
498.683498 401.8461 l
550.860122 401.8461 l
603.036745 401.8461 l
603.036745 418.1757 l
707.389992 418.1757 l
733.478304 434.5053 l
733.478304 450.8349 l
785.654927 450.8349 l
785.654927 467.1645 l
811.743239 467.1645 l
stroke
grestore
0.769 0.306 0.322 setrgbcolor
gsave
803.5 449.1 44.75 38.51 clipbox
81.270511 58.9245 m
81.270511 75.2541 l
81.270511 107.9133 l
107.358823 107.9133 l
107.358823 124.2429 l
133.447135 156.9021 l
159.535446 156.9021 l
185.623758 173.2317 l
211.71207 173.2317 l
237.800381 189.5613 l
237.800381 222.2205 l
316.065317 222.2205 l
316.065317 238.5501 l
368.24194 238.5501 l
368.24194 271.2093 l
368.24194 303.8685 l
368.24194 320.1981 l
394.330252 320.1981 l
394.330252 352.8573 l
446.506875 352.8573 l
446.506875 369.1869 l
472.595187 385.5165 l
472.595187 401.8461 l
498.683498 401.8461 l
498.683498 418.1757 l
524.77181 418.1757 l
550.860122 434.5053 l
629.125057 434.5053 l
681.30168 434.5053 l
681.30168 450.8349 l
707.389992 467.1645 l
811.743239 467.1645 l
stroke
grestore
0.506 0.447 0.698 setrgbcolor
gsave
803.5 449.1 44.75 38.51 clipbox
81.270511 58.9245 m
81.270511 75.2541 l
81.270511 107.9133 l
81.270511 173.2317 l
107.358823 173.2317 l
107.358823 189.5613 l
133.447135 189.5613 l
159.535446 205.8909 l
159.535446 238.5501 l
185.623758 238.5501 l
185.623758 271.2093 l
211.71207 287.5389 l
237.800381 287.5389 l
263.888693 320.1981 l
394.330252 320.1981 l
394.330252 352.8573 l
446.506875 352.8573 l
472.595187 369.1869 l
472.595187 385.5165 l
524.77181 401.8461 l
576.948433 401.8461 l
576.948433 418.1757 l
681.30168 418.1757 l
681.30168 434.5053 l
785.654927 434.5053 l
785.654927 467.1645 l
811.743239 467.1645 l
stroke
grestore
0.800 0.725 0.455 setrgbcolor
gsave
803.5 449.1 44.75 38.51 clipbox
81.270511 58.9245 m
81.270511 75.9345 l
81.270511 212.0145 l
108.325057 212.0145 l
108.325057 297.0645 l
135.379602 297.0645 l
135.379602 331.0845 l
135.379602 348.0945 l
162.434148 365.1045 l
216.543239 365.1045 l
243.597784 382.1145 l
297.706875 382.1145 l
324.76142 399.1245 l
378.870511 399.1245 l
432.979602 416.1345 l
460.034148 433.1445 l
514.143239 433.1445 l
568.25233 450.1545 l
622.36142 450.1545 l
649.415966 467.1645 l
811.743239 467.1645 l
stroke
grestore
0.392 0.710 0.804 setrgbcolor
gsave
803.5 449.1 44.75 38.51 clipbox
81.270511 58.9245 m
81.270511 75.9345 l
81.270511 109.9545 l
81.270511 160.9845 l
81.270511 177.9945 l
107.358823 177.9945 l
133.447135 229.0245 l
159.535446 229.0245 l
159.535446 246.0345 l
185.623758 246.0345 l
185.623758 280.0545 l
211.71207 297.0645 l
263.888693 314.0745 l
263.888693 331.0845 l
342.153628 331.0845 l
420.418563 331.0845 l
420.418563 399.1245 l
472.595187 399.1245 l
498.683498 416.1345 l
550.860122 416.1345 l
576.948433 416.1345 l
576.948433 450.1545 l
629.125057 450.1545 l
681.30168 450.1545 l
707.389992 450.1545 l
733.478304 467.1645 l
811.743239 467.1645 l
stroke
grestore
0.298 0.447 0.690 setrgbcolor
gsave
803.5 449.1 44.75 38.51 clipbox
81.270511 58.9245 m
81.270511 75.9345 l
81.270511 92.9445 l
107.358823 92.9445 l
107.358823 109.9545 l
133.447135 126.9645 l
133.447135 177.9945 l
159.535446 195.0045 l
185.623758 195.0045 l
211.71207 229.0245 l
237.800381 229.0245 l
237.800381 246.0345 l
263.888693 246.0345 l
316.065317 246.0345 l
316.065317 263.0445 l
342.153628 280.0545 l
368.24194 331.0845 l
368.24194 348.0945 l
420.418563 348.0945 l
472.595187 348.0945 l
498.683498 365.1045 l
498.683498 382.1145 l
550.860122 382.1145 l
603.036745 416.1345 l
629.125057 416.1345 l
707.389992 416.1345 l
707.389992 433.1445 l
733.478304 433.1445 l
733.478304 450.1545 l
811.743239 450.1545 l
811.743239 467.1645 l
stroke
grestore
0.333 0.659 0.408 setrgbcolor
gsave
803.5 449.1 44.75 38.51 clipbox
81.270511 58.9245 m
81.270511 75.9345 l
81.270511 109.9545 l
107.358823 109.9545 l
107.358823 126.9645 l
159.535446 126.9645 l
159.535446 143.9745 l
185.623758 143.9745 l
237.800381 143.9745 l
237.800381 160.9845 l
263.888693 195.0045 l
289.977005 212.0145 l
289.977005 229.0245 l
316.065317 246.0345 l
420.418563 280.0545 l
446.506875 280.0545 l
446.506875 297.0645 l
472.595187 314.0745 l
472.595187 331.0845 l
498.683498 348.0945 l
498.683498 365.1045 l
550.860122 365.1045 l
576.948433 382.1145 l
603.036745 382.1145 l
603.036745 399.1245 l
681.30168 399.1245 l
681.30168 416.1345 l
707.389992 433.1445 l
707.389992 450.1545 l
733.478304 450.1545 l
733.478304 467.1645 l
785.654927 467.1645 l
811.743239 467.1645 l
stroke
grestore
0.769 0.306 0.322 setrgbcolor
gsave
803.5 449.1 44.75 38.51 clipbox
81.270511 58.9245 m
81.270511 75.9345 l
81.270511 143.9745 l
159.535446 143.9745 l
159.535446 160.9845 l
185.623758 160.9845 l
185.623758 177.9945 l
211.71207 177.9945 l
211.71207 212.0145 l
237.800381 212.0145 l
263.888693 229.0245 l
316.065317 229.0245 l
316.065317 246.0345 l
368.24194 246.0345 l
420.418563 263.0445 l
420.418563 280.0545 l
472.595187 280.0545 l
472.595187 314.0745 l
524.77181 331.0845 l
524.77181 365.1045 l
550.860122 382.1145 l
576.948433 382.1145 l
576.948433 399.1245 l
603.036745 399.1245 l
603.036745 416.1345 l
655.213369 433.1445 l
681.30168 433.1445 l
681.30168 467.1645 l
733.478304 467.1645 l
811.743239 467.1645 l
stroke
grestore
0.506 0.447 0.698 setrgbcolor
gsave
803.5 449.1 44.75 38.51 clipbox
81.270511 58.9245 m
81.270511 75.9345 l
81.270511 92.9445 l
81.270511 126.9645 l
81.270511 143.9745 l
133.447135 143.9745 l
133.447135 160.9845 l
159.535446 160.9845 l
159.535446 177.9945 l
185.623758 177.9945 l
211.71207 195.0045 l
263.888693 195.0045 l
289.977005 229.0245 l
289.977005 246.0345 l
316.065317 263.0445 l
316.065317 297.0645 l
342.153628 297.0645 l
394.330252 314.0745 l
420.418563 314.0745 l
420.418563 331.0845 l
446.506875 365.1045 l
446.506875 399.1245 l
524.77181 399.1245 l
550.860122 416.1345 l
603.036745 416.1345 l
707.389992 416.1345 l
707.389992 433.1445 l
733.478304 450.1545 l
759.566615 450.1545 l
759.566615 467.1645 l
811.743239 467.1645 l
stroke
grestore
gsave
44.746875 38.5125 m
44.746875 487.5765 l
grestore
gsave
848.266875 38.5125 m
848.266875 487.5765 l
grestore
gsave
44.746875 38.5125 m
848.266875 38.5125 l
grestore
gsave
44.746875 487.5765 m
848.266875 487.5765 l
grestore
0.150 setgray
/DejaVuSans findfont
12.000 scalefont
setfont
gsave
414.694375 493.576500 translate
0.000000 rotate
0.000000 0.000000 m /R glyphshow
8.337891 0.000000 m /O glyphshow
17.783203 0.000000 m /C glyphshow
26.162109 0.000000 m /space glyphshow
29.976562 0.000000 m /c glyphshow
36.574219 0.000000 m /u glyphshow
44.179688 0.000000 m /r glyphshow
49.113281 0.000000 m /v glyphshow
56.214844 0.000000 m /e glyphshow
grestore
0.298 0.447 0.690 setrgbcolor
gsave
664.06375 185.1375 m
684.06375 185.1375 l
stroke
grestore
0.150 setgray
/DejaVuSans findfont
10.000 scalefont
setfont
gsave
692.063750 181.637500 translate
0.000000 rotate
0.000000 0.000000 m /A glyphshow
6.840820 0.000000 m /U glyphshow
14.160156 0.000000 m /C glyphshow
21.142578 0.000000 m /space glyphshow
24.321289 0.000000 m /equal glyphshow
32.700195 0.000000 m /space glyphshow
35.878906 0.000000 m /zero glyphshow
42.241211 0.000000 m /period glyphshow
45.419922 0.000000 m /five glyphshow
51.782227 0.000000 m /eight glyphshow
58.144531 0.000000 m /six glyphshow
64.506836 0.000000 m /two glyphshow
70.869141 0.000000 m /zero glyphshow
77.231445 0.000000 m /six glyphshow
83.593750 0.000000 m /eight glyphshow
89.956055 0.000000 m /nine glyphshow
96.318359 0.000000 m /six glyphshow
102.680664 0.000000 m /five glyphshow
109.042969 0.000000 m /five glyphshow
115.405273 0.000000 m /one glyphshow
121.767578 0.000000 m /seven glyphshow
128.129883 0.000000 m /two glyphshow
134.492188 0.000000 m /four glyphshow
140.854492 0.000000 m /two glyphshow
grestore
0.333 0.659 0.408 setrgbcolor
gsave
664.06375 170.465625 m
684.06375 170.465625 l
stroke
grestore
0.150 setgray
gsave
692.063750 166.965625 translate
0.000000 rotate
0.000000 0.000000 m /A glyphshow
6.840820 0.000000 m /U glyphshow
14.160156 0.000000 m /C glyphshow
21.142578 0.000000 m /space glyphshow
24.321289 0.000000 m /equal glyphshow
32.700195 0.000000 m /space glyphshow
35.878906 0.000000 m /zero glyphshow
42.241211 0.000000 m /period glyphshow
45.419922 0.000000 m /six glyphshow
51.782227 0.000000 m /eight glyphshow
58.144531 0.000000 m /four glyphshow
64.506836 0.000000 m /nine glyphshow
70.869141 0.000000 m /nine glyphshow
77.231445 0.000000 m /nine glyphshow
83.593750 0.000000 m /nine glyphshow
89.956055 0.000000 m /nine glyphshow
96.318359 0.000000 m /nine glyphshow
102.680664 0.000000 m /nine glyphshow
109.042969 0.000000 m /nine glyphshow
115.405273 0.000000 m /nine glyphshow
121.767578 0.000000 m /nine glyphshow
128.129883 0.000000 m /nine glyphshow
134.492188 0.000000 m /nine glyphshow
140.854492 0.000000 m /nine glyphshow
grestore
0.769 0.306 0.322 setrgbcolor
gsave
664.06375 155.79375 m
684.06375 155.79375 l
stroke
grestore
0.150 setgray
gsave
692.063750 152.293750 translate
0.000000 rotate
0.000000 0.000000 m /A glyphshow
6.840820 0.000000 m /U glyphshow
14.160156 0.000000 m /C glyphshow
21.142578 0.000000 m /space glyphshow
24.321289 0.000000 m /equal glyphshow
32.700195 0.000000 m /space glyphshow
35.878906 0.000000 m /zero glyphshow
42.241211 0.000000 m /period glyphshow
45.419922 0.000000 m /six glyphshow
51.782227 0.000000 m /six glyphshow
58.144531 0.000000 m /two glyphshow
64.506836 0.000000 m /one glyphshow
70.869141 0.000000 m /four glyphshow
77.231445 0.000000 m /two glyphshow
83.593750 0.000000 m /eight glyphshow
89.956055 0.000000 m /five glyphshow
96.318359 0.000000 m /seven glyphshow
102.680664 0.000000 m /one glyphshow
109.042969 0.000000 m /four glyphshow
115.405273 0.000000 m /two glyphshow
121.767578 0.000000 m /eight glyphshow
128.129883 0.000000 m /five glyphshow
134.492188 0.000000 m /seven glyphshow
140.854492 0.000000 m /one glyphshow
grestore
0.506 0.447 0.698 setrgbcolor
gsave
664.06375 141.121875 m
684.06375 141.121875 l
stroke
grestore
0.150 setgray
gsave
692.063750 137.621875 translate
0.000000 rotate
0.000000 0.000000 m /A glyphshow
6.840820 0.000000 m /U glyphshow
14.160156 0.000000 m /C glyphshow
21.142578 0.000000 m /space glyphshow
24.321289 0.000000 m /equal glyphshow
32.700195 0.000000 m /space glyphshow
35.878906 0.000000 m /zero glyphshow
42.241211 0.000000 m /period glyphshow
45.419922 0.000000 m /seven glyphshow
51.782227 0.000000 m /one glyphshow
58.144531 0.000000 m /three glyphshow
64.506836 0.000000 m /five glyphshow
70.869141 0.000000 m /seven glyphshow
77.231445 0.000000 m /one glyphshow
83.593750 0.000000 m /four glyphshow
89.956055 0.000000 m /two glyphshow
96.318359 0.000000 m /eight glyphshow
102.680664 0.000000 m /five glyphshow
109.042969 0.000000 m /seven glyphshow
115.405273 0.000000 m /one glyphshow
121.767578 0.000000 m /four glyphshow
128.129883 0.000000 m /two glyphshow
134.492188 0.000000 m /eight glyphshow
140.854492 0.000000 m /six glyphshow
grestore
0.800 0.725 0.455 setrgbcolor
gsave
664.06375 126.45 m
684.06375 126.45 l
stroke
grestore
0.150 setgray
gsave
692.063750 122.950000 translate
0.000000 rotate
0.000000 0.000000 m /A glyphshow
6.840820 0.000000 m /U glyphshow
14.160156 0.000000 m /C glyphshow
21.142578 0.000000 m /space glyphshow
24.321289 0.000000 m /equal glyphshow
32.700195 0.000000 m /space glyphshow
35.878906 0.000000 m /zero glyphshow
42.241211 0.000000 m /period glyphshow
45.419922 0.000000 m /eight glyphshow
51.782227 0.000000 m /six glyphshow
58.144531 0.000000 m /zero glyphshow
64.506836 0.000000 m /three glyphshow
70.869141 0.000000 m /three glyphshow
77.231445 0.000000 m /nine glyphshow
83.593750 0.000000 m /five glyphshow
89.956055 0.000000 m /zero glyphshow
96.318359 0.000000 m /six glyphshow
102.680664 0.000000 m /one glyphshow
109.042969 0.000000 m /seven glyphshow
115.405273 0.000000 m /two glyphshow
121.767578 0.000000 m /eight glyphshow
128.129883 0.000000 m /three glyphshow
134.492188 0.000000 m /nine glyphshow
140.854492 0.000000 m /five glyphshow
grestore
0.392 0.710 0.804 setrgbcolor
gsave
664.06375 111.778125 m
684.06375 111.778125 l
stroke
grestore
0.150 setgray
gsave
692.063750 108.278125 translate
0.000000 rotate
0.000000 0.000000 m /A glyphshow
6.840820 0.000000 m /U glyphshow
14.160156 0.000000 m /C glyphshow
21.142578 0.000000 m /space glyphshow
24.321289 0.000000 m /equal glyphshow
32.700195 0.000000 m /space glyphshow
35.878906 0.000000 m /zero glyphshow
42.241211 0.000000 m /period glyphshow
45.419922 0.000000 m /seven glyphshow
51.782227 0.000000 m /five glyphshow
58.144531 0.000000 m /seven glyphshow
64.506836 0.000000 m /four glyphshow
70.869141 0.000000 m /four glyphshow
77.231445 0.000000 m /zero glyphshow
83.593750 0.000000 m /four glyphshow
89.956055 0.000000 m /seven glyphshow
96.318359 0.000000 m /six glyphshow
102.680664 0.000000 m /one glyphshow
109.042969 0.000000 m /nine glyphshow
115.405273 0.000000 m /zero glyphshow
121.767578 0.000000 m /four glyphshow
128.129883 0.000000 m /seven glyphshow
134.492188 0.000000 m /six glyphshow
140.854492 0.000000 m /two glyphshow
grestore
0.298 0.447 0.690 setrgbcolor
gsave
664.06375 97.10625 m
684.06375 97.10625 l
stroke
grestore
0.150 setgray
gsave
692.063750 93.606250 translate
0.000000 rotate
0.000000 0.000000 m /A glyphshow
6.840820 0.000000 m /U glyphshow
14.160156 0.000000 m /C glyphshow
21.142578 0.000000 m /space glyphshow
24.321289 0.000000 m /equal glyphshow
32.700195 0.000000 m /space glyphshow
35.878906 0.000000 m /zero glyphshow
42.241211 0.000000 m /period glyphshow
45.419922 0.000000 m /six glyphshow
51.782227 0.000000 m /five glyphshow
58.144531 0.000000 m /two glyphshow
64.506836 0.000000 m /five glyphshow
70.869141 0.000000 m /two glyphshow
77.231445 0.000000 m /nine glyphshow
83.593750 0.000000 m /seven glyphshow
89.956055 0.000000 m /six glyphshow
96.318359 0.000000 m /one glyphshow
102.680664 0.000000 m /nine glyphshow
109.042969 0.000000 m /zero glyphshow
115.405273 0.000000 m /four glyphshow
121.767578 0.000000 m /seven glyphshow
128.129883 0.000000 m /six glyphshow
134.492188 0.000000 m /two glyphshow
grestore
0.333 0.659 0.408 setrgbcolor
gsave
664.06375 82.434375 m
684.06375 82.434375 l
stroke
grestore
0.150 setgray
gsave
692.063750 78.934375 translate
0.000000 rotate
0.000000 0.000000 m /A glyphshow
6.840820 0.000000 m /U glyphshow
14.160156 0.000000 m /C glyphshow
21.142578 0.000000 m /space glyphshow
24.321289 0.000000 m /equal glyphshow
32.700195 0.000000 m /space glyphshow
35.878906 0.000000 m /zero glyphshow
42.241211 0.000000 m /period glyphshow
45.419922 0.000000 m /five glyphshow
51.782227 0.000000 m /eight glyphshow
58.144531 0.000000 m /six glyphshow
64.506836 0.000000 m /three glyphshow
70.869141 0.000000 m /zero glyphshow
77.231445 0.000000 m /nine glyphshow
83.593750 0.000000 m /five glyphshow
89.956055 0.000000 m /two glyphshow
96.318359 0.000000 m /three glyphshow
102.680664 0.000000 m /eight glyphshow
109.042969 0.000000 m /zero glyphshow
115.405273 0.000000 m /nine glyphshow
121.767578 0.000000 m /five glyphshow
128.129883 0.000000 m /two glyphshow
134.492188 0.000000 m /three glyphshow
140.854492 0.000000 m /seven glyphshow
grestore
0.769 0.306 0.322 setrgbcolor
gsave
664.06375 67.7625 m
684.06375 67.7625 l
stroke
grestore
0.150 setgray
gsave
692.063750 64.262500 translate
0.000000 rotate
0.000000 0.000000 m /A glyphshow
6.840820 0.000000 m /U glyphshow
14.160156 0.000000 m /C glyphshow
21.142578 0.000000 m /space glyphshow
24.321289 0.000000 m /equal glyphshow
32.700195 0.000000 m /space glyphshow
35.878906 0.000000 m /zero glyphshow
42.241211 0.000000 m /period glyphshow
45.419922 0.000000 m /six glyphshow
51.782227 0.000000 m /one glyphshow
58.144531 0.000000 m /one glyphshow
64.506836 0.000000 m /six glyphshow
70.869141 0.000000 m /zero glyphshow
77.231445 0.000000 m /seven glyphshow
83.593750 0.000000 m /one glyphshow
89.956055 0.000000 m /four glyphshow
96.318359 0.000000 m /two glyphshow
102.680664 0.000000 m /eight glyphshow
109.042969 0.000000 m /five glyphshow
115.405273 0.000000 m /seven glyphshow
121.767578 0.000000 m /one glyphshow
128.129883 0.000000 m /four glyphshow
134.492188 0.000000 m /two glyphshow
140.854492 0.000000 m /nine glyphshow
grestore
0.506 0.447 0.698 setrgbcolor
gsave
664.06375 53.090625 m
684.06375 53.090625 l
stroke
grestore
0.150 setgray
gsave
692.063750 49.590625 translate
0.000000 rotate
0.000000 0.000000 m /A glyphshow
6.840820 0.000000 m /U glyphshow
14.160156 0.000000 m /C glyphshow
21.142578 0.000000 m /space glyphshow
24.321289 0.000000 m /equal glyphshow
32.700195 0.000000 m /space glyphshow
35.878906 0.000000 m /zero glyphshow
42.241211 0.000000 m /period glyphshow
45.419922 0.000000 m /six glyphshow
51.782227 0.000000 m /five glyphshow
58.144531 0.000000 m /seven glyphshow
64.506836 0.000000 m /seven glyphshow
70.869141 0.000000 m /three glyphshow
77.231445 0.000000 m /eight glyphshow
83.593750 0.000000 m /zero glyphshow
89.956055 0.000000 m /nine glyphshow
96.318359 0.000000 m /five glyphshow
102.680664 0.000000 m /two glyphshow
109.042969 0.000000 m /three glyphshow
115.405273 0.000000 m /eight glyphshow
121.767578 0.000000 m /zero glyphshow
128.129883 0.000000 m /nine glyphshow
134.492188 0.000000 m /five glyphshow
140.854492 0.000000 m /two glyphshow
grestore

end
showpage
