%!PS-Adobe-3.0 EPSF-3.0
%%Title: /tmp/top_spheres.eps
%%Creator: matplotlib version 3.1.1, http://matplotlib.org/
%%CreationDate: Sat Jul 13 13:30:22 2019
%%Orientation: portrait
%%BoundingBox: -234.0 216.0 846.0 576.0
%%EndComments
%%BeginProlog
/mpldict 8 dict def
mpldict begin
/m { moveto } bind def
/l { lineto } bind def
/r { rlineto } bind def
/c { curveto } bind def
/cl { closepath } bind def
/box {
m
1 index 0 r
0 exch r
neg 0 r
cl
} bind def
/clipbox {
box
clip
newpath
} bind def
%!PS-Adobe-3.0 Resource-Font
%%Title: DejaVu Sans
%%Copyright: Copyright (c) 2003 by Bitstream, Inc. All Rights Reserved. Copyright (c) 2006 by Tavmjong Bah. All Rights Reserved. DejaVu changes are in public domain 
%%Creator: Converted from TrueType to type 3 by PPR
25 dict begin
/_d{bind def}bind def
/_m{moveto}_d
/_l{lineto}_d
/_cl{closepath eofill}_d
/_c{curveto}_d
/_sc{7 -1 roll{setcachedevice}{pop pop pop pop pop pop}ifelse}_d
/_e{exec}_d
/FontName /DejaVuSans def
/PaintType 0 def
/FontMatrix[.001 0 0 .001 0 0]def
/FontBBox[-1021 -463 1793 1232]def
/FontType 3 def
/Encoding [ /space /period /zero /one /two /three /four /five /six /seven /equal /C /S /e /h /i /l /m /n /o /p /r /s /t /u /v /x ] def
/FontInfo 10 dict dup begin
/FamilyName (DejaVu Sans) def
/FullName (DejaVu Sans) def
/Notice (Copyright (c) 2003 by Bitstream, Inc. All Rights Reserved. Copyright (c) 2006 by Tavmjong Bah. All Rights Reserved. DejaVu changes are in public domain ) def
/Weight (Book) def
/Version (Version 2.35) def
/ItalicAngle 0.0 def
/isFixedPitch false def
/UnderlinePosition -130 def
/UnderlineThickness 90 def
end readonly def
/CharStrings 28 dict dup begin
/.notdef 0 def
/space{318 0 0 0 0 0 _sc
}_d
/period{318 0 107 0 210 124 _sc
107 124 _m
210 124 _l
210 0 _l
107 0 _l
107 124 _l
_cl}_d
/zero{636 0 66 -13 570 742 _sc
318 664 _m
267 664 229 639 203 589 _c
177 539 165 464 165 364 _c
165 264 177 189 203 139 _c
229 89 267 64 318 64 _c
369 64 407 89 433 139 _c
458 189 471 264 471 364 _c
471 464 458 539 433 589 _c
407 639 369 664 318 664 _c
318 742 _m
399 742 461 709 505 645 _c
548 580 570 486 570 364 _c
570 241 548 147 505 83 _c
461 19 399 -13 318 -13 _c
236 -13 173 19 130 83 _c
87 147 66 241 66 364 _c
66 486 87 580 130 645 _c
173 709 236 742 318 742 _c
_cl}_d
/one{636 0 110 0 544 729 _sc
124 83 _m
285 83 _l
285 639 _l
110 604 _l
110 694 _l
284 729 _l
383 729 _l
383 83 _l
544 83 _l
544 0 _l
124 0 _l
124 83 _l
_cl}_d
/two{{636 0 73 0 536 742 _sc
192 83 _m
536 83 _l
536 0 _l
73 0 _l
73 83 _l
110 121 161 173 226 239 _c
290 304 331 346 348 365 _c
380 400 402 430 414 455 _c
426 479 433 504 433 528 _c
433 566 419 598 392 622 _c
365 646 330 659 286 659 _c
255 659 222 653 188 643 _c
154 632 117 616 78 594 _c
78 694 _l
118 710 155 722 189 730 _c
223 738 255 742 284 742 _c
}_e{359 742 419 723 464 685 _c
509 647 532 597 532 534 _c
532 504 526 475 515 449 _c
504 422 484 390 454 354 _c
446 344 420 317 376 272 _c
332 227 271 164 192 83 _c
_cl}_e}_d
/three{{636 0 76 -13 556 742 _sc
406 393 _m
453 383 490 362 516 330 _c
542 298 556 258 556 212 _c
556 140 531 84 482 45 _c
432 6 362 -13 271 -13 _c
240 -13 208 -10 176 -4 _c
144 1 110 10 76 22 _c
76 117 _l
103 101 133 89 166 81 _c
198 73 232 69 268 69 _c
330 69 377 81 409 105 _c
441 129 458 165 458 212 _c
458 254 443 288 413 312 _c
383 336 341 349 287 349 _c
}_e{202 349 _l
202 430 _l
291 430 _l
339 430 376 439 402 459 _c
428 478 441 506 441 543 _c
441 580 427 609 401 629 _c
374 649 336 659 287 659 _c
260 659 231 656 200 650 _c
169 644 135 635 98 623 _c
98 711 _l
135 721 170 729 203 734 _c
235 739 266 742 296 742 _c
370 742 429 725 473 691 _c
517 657 539 611 539 553 _c
539 513 527 479 504 451 _c
481 423 448 403 406 393 _c
_cl}_e}_d
/four{636 0 49 0 580 729 _sc
378 643 _m
129 254 _l
378 254 _l
378 643 _l
352 729 _m
476 729 _l
476 254 _l
580 254 _l
580 172 _l
476 172 _l
476 0 _l
378 0 _l
378 172 _l
49 172 _l
49 267 _l
352 729 _l
_cl}_d
/five{{636 0 77 -13 549 729 _sc
108 729 _m
495 729 _l
495 646 _l
198 646 _l
198 467 _l
212 472 227 476 241 478 _c
255 480 270 482 284 482 _c
365 482 429 459 477 415 _c
525 370 549 310 549 234 _c
549 155 524 94 475 51 _c
426 8 357 -13 269 -13 _c
238 -13 207 -10 175 -6 _c
143 -1 111 6 77 17 _c
77 116 _l
106 100 136 88 168 80 _c
199 72 232 69 267 69 _c
}_e{323 69 368 83 401 113 _c
433 143 450 183 450 234 _c
450 284 433 324 401 354 _c
368 384 323 399 267 399 _c
241 399 214 396 188 390 _c
162 384 135 375 108 363 _c
108 729 _l
_cl}_e}_d
/six{{636 0 70 -13 573 742 _sc
330 404 _m
286 404 251 388 225 358 _c
199 328 186 286 186 234 _c
186 181 199 139 225 109 _c
251 79 286 64 330 64 _c
374 64 409 79 435 109 _c
461 139 474 181 474 234 _c
474 286 461 328 435 358 _c
409 388 374 404 330 404 _c
526 713 _m
526 623 _l
501 635 476 644 451 650 _c
425 656 400 659 376 659 _c
310 659 260 637 226 593 _c
}_e{192 549 172 482 168 394 _c
187 422 211 444 240 459 _c
269 474 301 482 336 482 _c
409 482 467 459 509 415 _c
551 371 573 310 573 234 _c
573 159 550 99 506 54 _c
462 9 403 -13 330 -13 _c
246 -13 181 19 137 83 _c
92 147 70 241 70 364 _c
70 479 97 571 152 639 _c
206 707 280 742 372 742 _c
396 742 421 739 447 735 _c
472 730 498 723 526 713 _c
_cl}_e}_d
/seven{636 0 82 0 551 729 _sc
82 729 _m
551 729 _l
551 687 _l
286 0 _l
183 0 _l
432 646 _l
82 646 _l
82 729 _l
_cl}_d
/equal{838 0 106 172 732 454 _sc
106 454 _m
732 454 _l
732 372 _l
106 372 _l
106 454 _l
106 255 _m
732 255 _l
732 172 _l
106 172 _l
106 255 _l
_cl}_d
/C{{698 0 56 -13 644 742 _sc
644 673 _m
644 569 _l
610 599 575 622 537 638 _c
499 653 460 661 418 661 _c
334 661 270 635 226 584 _c
182 533 160 460 160 364 _c
160 268 182 194 226 143 _c
270 92 334 67 418 67 _c
460 67 499 74 537 90 _c
575 105 610 128 644 159 _c
644 56 _l
609 32 572 15 534 4 _c
496 -7 455 -13 412 -13 _c
302 -13 215 20 151 87 _c
}_e{87 154 56 246 56 364 _c
56 481 87 573 151 641 _c
215 708 302 742 412 742 _c
456 742 497 736 535 725 _c
573 713 610 696 644 673 _c
_cl}_e}_d
/S{{635 0 66 -13 579 742 _sc
535 705 _m
535 609 _l
497 627 462 640 429 649 _c
395 657 363 662 333 662 _c
279 662 237 651 208 631 _c
179 610 165 580 165 542 _c
165 510 174 485 194 469 _c
213 452 250 439 304 429 _c
364 417 _l
437 403 491 378 526 343 _c
561 307 579 260 579 201 _c
579 130 555 77 508 41 _c
460 5 391 -13 300 -13 _c
265 -13 228 -9 189 -2 _c
}_e{150 5 110 16 69 32 _c
69 134 _l
109 111 148 94 186 83 _c
224 71 262 66 300 66 _c
356 66 399 77 430 99 _c
460 121 476 152 476 194 _c
476 230 465 258 443 278 _c
421 298 385 313 335 323 _c
275 335 _l
201 349 148 372 115 404 _c
82 435 66 478 66 534 _c
66 598 88 649 134 686 _c
179 723 242 742 322 742 _c
356 742 390 739 426 733 _c
461 727 497 717 535 705 _c
}_e{_cl}_e}_d
/e{{615 0 55 -13 562 560 _sc
562 296 _m
562 252 _l
149 252 _l
153 190 171 142 205 110 _c
238 78 284 62 344 62 _c
378 62 412 66 444 74 _c
476 82 509 95 541 113 _c
541 28 _l
509 14 476 3 442 -3 _c
408 -9 373 -13 339 -13 _c
251 -13 182 12 131 62 _c
80 112 55 181 55 268 _c
55 357 79 428 127 481 _c
175 533 241 560 323 560 _c
397 560 455 536 498 489 _c
}_e{540 441 562 377 562 296 _c
472 322 _m
471 371 457 410 431 440 _c
404 469 368 484 324 484 _c
274 484 234 469 204 441 _c
174 413 156 373 152 322 _c
472 322 _l
_cl}_e}_d
/h{634 0 91 0 549 760 _sc
549 330 _m
549 0 _l
459 0 _l
459 327 _l
459 379 448 417 428 443 _c
408 469 378 482 338 482 _c
289 482 251 466 223 435 _c
195 404 181 362 181 309 _c
181 0 _l
91 0 _l
91 760 _l
181 760 _l
181 462 _l
202 494 227 519 257 535 _c
286 551 320 560 358 560 _c
420 560 468 540 500 501 _c
532 462 549 405 549 330 _c
_cl}_d
/i{278 0 94 0 184 760 _sc
94 547 _m
184 547 _l
184 0 _l
94 0 _l
94 547 _l
94 760 _m
184 760 _l
184 646 _l
94 646 _l
94 760 _l
_cl}_d
/l{278 0 94 0 184 760 _sc
94 760 _m
184 760 _l
184 0 _l
94 0 _l
94 760 _l
_cl}_d
/m{{974 0 91 0 889 560 _sc
520 442 _m
542 482 569 511 600 531 _c
631 550 668 560 711 560 _c
767 560 811 540 842 500 _c
873 460 889 403 889 330 _c
889 0 _l
799 0 _l
799 327 _l
799 379 789 418 771 444 _c
752 469 724 482 686 482 _c
639 482 602 466 575 435 _c
548 404 535 362 535 309 _c
535 0 _l
445 0 _l
445 327 _l
445 379 435 418 417 444 _c
398 469 369 482 331 482 _c
}_e{285 482 248 466 221 435 _c
194 404 181 362 181 309 _c
181 0 _l
91 0 _l
91 547 _l
181 547 _l
181 462 _l
201 495 226 520 255 536 _c
283 552 317 560 357 560 _c
397 560 430 550 458 530 _c
486 510 506 480 520 442 _c
_cl}_e}_d
/n{634 0 91 0 549 560 _sc
549 330 _m
549 0 _l
459 0 _l
459 327 _l
459 379 448 417 428 443 _c
408 469 378 482 338 482 _c
289 482 251 466 223 435 _c
195 404 181 362 181 309 _c
181 0 _l
91 0 _l
91 547 _l
181 547 _l
181 462 _l
202 494 227 519 257 535 _c
286 551 320 560 358 560 _c
420 560 468 540 500 501 _c
532 462 549 405 549 330 _c
_cl}_d
/o{612 0 55 -13 557 560 _sc
306 484 _m
258 484 220 465 192 427 _c
164 389 150 338 150 273 _c
150 207 163 156 191 118 _c
219 80 257 62 306 62 _c
354 62 392 80 420 118 _c
448 156 462 207 462 273 _c
462 337 448 389 420 427 _c
392 465 354 484 306 484 _c
306 560 _m
384 560 445 534 490 484 _c
534 433 557 363 557 273 _c
557 183 534 113 490 63 _c
445 12 384 -13 306 -13 _c
227 -13 165 12 121 63 _c
77 113 55 183 55 273 _c
55 363 77 433 121 484 _c
165 534 227 560 306 560 _c
_cl}_d
/p{{635 0 91 -207 580 560 _sc
181 82 _m
181 -207 _l
91 -207 _l
91 547 _l
181 547 _l
181 464 _l
199 496 223 520 252 536 _c
281 552 316 560 356 560 _c
422 560 476 533 518 481 _c
559 428 580 359 580 273 _c
580 187 559 117 518 65 _c
476 13 422 -13 356 -13 _c
316 -13 281 -5 252 10 _c
223 25 199 49 181 82 _c
487 273 _m
487 339 473 390 446 428 _c
418 466 381 485 334 485 _c
}_e{286 485 249 466 222 428 _c
194 390 181 339 181 273 _c
181 207 194 155 222 117 _c
249 79 286 61 334 61 _c
381 61 418 79 446 117 _c
473 155 487 207 487 273 _c
_cl}_e}_d
/r{411 0 91 0 411 560 _sc
411 463 _m
401 469 390 473 378 476 _c
366 478 353 480 339 480 _c
288 480 249 463 222 430 _c
194 397 181 350 181 288 _c
181 0 _l
91 0 _l
91 547 _l
181 547 _l
181 462 _l
199 495 224 520 254 536 _c
284 552 321 560 365 560 _c
371 560 378 559 386 559 _c
393 558 401 557 411 555 _c
411 463 _l
_cl}_d
/s{{521 0 54 -13 472 560 _sc
443 531 _m
443 446 _l
417 458 391 468 364 475 _c
336 481 308 485 279 485 _c
234 485 200 478 178 464 _c
156 450 145 430 145 403 _c
145 382 153 366 169 354 _c
185 342 217 330 265 320 _c
296 313 _l
360 299 405 279 432 255 _c
458 230 472 195 472 151 _c
472 100 452 60 412 31 _c
372 1 316 -13 246 -13 _c
216 -13 186 -10 154 -5 _c
}_e{122 0 89 8 54 20 _c
54 113 _l
87 95 120 82 152 74 _c
184 65 216 61 248 61 _c
290 61 323 68 346 82 _c
368 96 380 117 380 144 _c
380 168 371 187 355 200 _c
339 213 303 226 247 238 _c
216 245 _l
160 257 119 275 95 299 _c
70 323 58 356 58 399 _c
58 450 76 490 112 518 _c
148 546 200 560 268 560 _c
301 560 332 557 362 552 _c
391 547 418 540 443 531 _c
}_e{_cl}_e}_d
/t{392 0 27 0 368 702 _sc
183 702 _m
183 547 _l
368 547 _l
368 477 _l
183 477 _l
183 180 _l
183 135 189 106 201 94 _c
213 81 238 75 276 75 _c
368 75 _l
368 0 _l
276 0 _l
206 0 158 13 132 39 _c
106 65 93 112 93 180 _c
93 477 _l
27 477 _l
27 547 _l
93 547 _l
93 702 _l
183 702 _l
_cl}_d
/u{634 0 85 -13 543 560 _sc
85 216 _m
85 547 _l
175 547 _l
175 219 _l
175 167 185 129 205 103 _c
225 77 255 64 296 64 _c
344 64 383 79 411 110 _c
439 141 453 183 453 237 _c
453 547 _l
543 547 _l
543 0 _l
453 0 _l
453 84 _l
431 50 405 26 377 10 _c
348 -5 315 -13 277 -13 _c
214 -13 166 6 134 45 _c
101 83 85 140 85 216 _c
311 560 _m
311 560 _l
_cl}_d
/v{592 0 30 0 562 547 _sc
30 547 _m
125 547 _l
296 88 _l
467 547 _l
562 547 _l
357 0 _l
235 0 _l
30 547 _l
_cl}_d
/x{592 0 29 0 559 547 _sc
549 547 _m
351 281 _l
559 0 _l
453 0 _l
294 215 _l
135 0 _l
29 0 _l
241 286 _l
47 547 _l
153 547 _l
298 352 _l
443 547 _l
549 547 _l
_cl}_d
end readonly def

/BuildGlyph
 {exch begin
 CharStrings exch
 2 copy known not{pop /.notdef}if
 true 3 1 roll get exec
 end}_d

/BuildChar {
 1 index /Encoding get exch get
 1 index /BuildGlyph get exec
}_d

FontName currentdict end definefont pop
end
%%EndProlog
mpldict begin
-234 216 translate
1080 360 0 0 clipbox
gsave
0 0 m
1080 0 l
1080 360 l
0 360 l
cl
1.000 setgray
fill
grestore
gsave
153.432 38.012 m
443.916 38.012 l
443.916 327.648 l
153.432 327.648 l
cl
0.918 0.918 0.949 setrgbcolor
fill
grestore
1.000 setlinewidth
1 setlinejoin
1 setlinecap
[] 0 setdash
1.000 setgray
gsave
290.5 289.6 153.4 38.01 clipbox
153.432 38.012 m
153.432 327.648 l
stroke
grestore
0.150 setgray
/DejaVuSans findfont
13.200 scalefont
setfont
gsave
157.017937 20.074500 translate
90.000000 rotate
0.000000 0.000000 m /zero glyphshow
grestore
1.000 setgray
gsave
290.5 289.6 153.4 38.01 clipbox
232.475265 38.012 m
232.475265 327.648 l
stroke
grestore
0.150 setgray
gsave
236.061203 11.637000 translate
90.000000 rotate
0.000000 0.000000 m /five glyphshow
8.430054 0.000000 m /zero glyphshow
grestore
1.000 setgray
gsave
290.5 289.6 153.4 38.01 clipbox
311.518531 38.012 m
311.518531 327.648 l
stroke
grestore
0.150 setgray
gsave
315.104468 3.199500 translate
90.000000 rotate
0.000000 0.000000 m /one glyphshow
8.430054 0.000000 m /zero glyphshow
16.860107 0.000000 m /zero glyphshow
grestore
1.000 setgray
gsave
290.5 289.6 153.4 38.01 clipbox
390.561796 38.012 m
390.561796 327.648 l
stroke
grestore
0.150 setgray
gsave
394.147733 3.199500 translate
90.000000 rotate
0.000000 0.000000 m /one glyphshow
8.430054 0.000000 m /five glyphshow
16.860107 0.000000 m /zero glyphshow
grestore
/DejaVuSans findfont
21.000 scalefont
setfont
gsave
262.017750 -16.753625 translate
0.000000 rotate
0.000000 0.000000 m /C glyphshow
14.663086 0.000000 m /o glyphshow
27.511230 0.000000 m /u glyphshow
40.820801 0.000000 m /n glyphshow
54.130371 0.000000 m /t glyphshow
62.364258 0.000000 m /s glyphshow
grestore
/DejaVuSans findfont
13.200 scalefont
setfont
gsave
41.666375 286.506000 translate
0.000000 rotate
0.000000 0.000000 m /two glyphshow
8.430054 0.000000 m /five glyphshow
16.860107 0.000000 m /space glyphshow
21.071899 0.000000 m /t glyphshow
26.267090 0.000000 m /o glyphshow
34.373657 0.000000 m /space glyphshow
38.585449 0.000000 m /five glyphshow
47.015503 0.000000 m /zero glyphshow
55.445557 0.000000 m /space glyphshow
59.657349 0.000000 m /v glyphshow
67.498657 0.000000 m /o glyphshow
75.605225 0.000000 m /x glyphshow
83.446533 0.000000 m /e glyphshow
91.598389 0.000000 m /l glyphshow
95.279663 0.000000 m /s glyphshow
grestore
gsave
41.666375 214.097000 translate
0.000000 rotate
0.000000 0.000000 m /five glyphshow
8.430054 0.000000 m /zero glyphshow
16.860107 0.000000 m /space glyphshow
21.071899 0.000000 m /t glyphshow
26.267090 0.000000 m /o glyphshow
34.373657 0.000000 m /space glyphshow
38.585449 0.000000 m /seven glyphshow
47.015503 0.000000 m /five glyphshow
55.445557 0.000000 m /space glyphshow
59.657349 0.000000 m /v glyphshow
67.498657 0.000000 m /o glyphshow
75.605225 0.000000 m /x glyphshow
83.446533 0.000000 m /e glyphshow
91.598389 0.000000 m /l glyphshow
95.279663 0.000000 m /s glyphshow
grestore
gsave
50.103875 141.688000 translate
0.000000 rotate
0.000000 0.000000 m /zero glyphshow
8.430054 0.000000 m /space glyphshow
12.641846 0.000000 m /t glyphshow
17.837036 0.000000 m /o glyphshow
25.943604 0.000000 m /space glyphshow
30.155396 0.000000 m /two glyphshow
38.585449 0.000000 m /five glyphshow
47.015503 0.000000 m /space glyphshow
51.227295 0.000000 m /v glyphshow
59.068604 0.000000 m /o glyphshow
67.175171 0.000000 m /x glyphshow
75.016479 0.000000 m /e glyphshow
83.168335 0.000000 m /l glyphshow
86.849609 0.000000 m /s glyphshow
grestore
gsave
33.228875 69.279000 translate
0.000000 rotate
0.000000 0.000000 m /seven glyphshow
8.430054 0.000000 m /five glyphshow
16.860107 0.000000 m /space glyphshow
21.071899 0.000000 m /t glyphshow
26.267090 0.000000 m /o glyphshow
34.373657 0.000000 m /space glyphshow
38.585449 0.000000 m /one glyphshow
47.015503 0.000000 m /zero glyphshow
55.445557 0.000000 m /zero glyphshow
63.875610 0.000000 m /space glyphshow
68.087402 0.000000 m /v glyphshow
75.928711 0.000000 m /o glyphshow
84.035278 0.000000 m /x glyphshow
91.876587 0.000000 m /e glyphshow
100.028442 0.000000 m /l glyphshow
103.709717 0.000000 m /s glyphshow
grestore
/DejaVuSans findfont
21.000 scalefont
setfont
gsave
24.853875 145.603437 translate
90.000000 rotate
0.000000 0.000000 m /S glyphshow
13.330078 0.000000 m /p glyphshow
26.660156 0.000000 m /h glyphshow
39.969727 0.000000 m /e glyphshow
52.889648 0.000000 m /r glyphshow
61.523438 0.000000 m /e glyphshow
grestore
0 setlinejoin
0 setlinecap
[] 0 setdash
1.000 setgray
gsave
290.5 289.6 153.4 38.01 clipbox
153.432 320.4071 m
423.759967 320.4071 l
423.759967 262.4799 l
153.432 262.4799 l
cl
gsave
0.347 0.459 0.641 setrgbcolor
fill
grestore
stroke
grestore
gsave
290.5 289.6 153.4 38.01 clipbox
153.432 247.9981 m
354.201894 247.9981 l
354.201894 190.0709 l
153.432 190.0709 l
cl
gsave
0.799 0.537 0.390 setrgbcolor
fill
grestore
stroke
grestore
gsave
290.5 289.6 153.4 38.01 clipbox
153.432 175.5891 m
347.878433 175.5891 l
347.878433 117.6619 l
153.432 117.6619 l
cl
gsave
0.374 0.618 0.430 setrgbcolor
fill
grestore
stroke
grestore
gsave
290.5 289.6 153.4 38.01 clipbox
153.432 103.1801 m
278.320359 103.1801 l
278.320359 45.2529 l
153.432 45.2529 l
cl
gsave
0.711 0.364 0.375 setrgbcolor
fill
grestore
stroke
grestore
1.250 setlinewidth
2 setlinecap
gsave
153.432 38.012 m
153.432 327.648 l
stroke
grestore
gsave
153.432 38.012 m
443.916 38.012 l
stroke
grestore
0.150 setgray
/DejaVuSans findfont
14.400 scalefont
setfont
gsave
255.830250 333.648000 translate
0.000000 rotate
0.000000 0.000000 m /t glyphshow
5.636292 0.000000 m /i glyphshow
9.630127 0.000000 m /m glyphshow
23.633118 0.000000 m /e glyphshow
32.477112 0.000000 m /space glyphshow
37.046509 0.000000 m /equal glyphshow
49.091187 0.000000 m /space glyphshow
53.660583 0.000000 m /two glyphshow
62.806396 0.000000 m /four glyphshow
71.952209 0.000000 m /period glyphshow
76.521606 0.000000 m /zero glyphshow
grestore
gsave
463.698 38.012 m
754.182 38.012 l
754.182 327.648 l
463.698 327.648 l
cl
0.918 0.918 0.949 setrgbcolor
fill
grestore
1.000 setlinewidth
1 setlinejoin
1 setlinecap
[] 0 setdash
1.000 setgray
gsave
290.5 289.6 463.7 38.01 clipbox
463.698 38.012 m
463.698 327.648 l
stroke
grestore
0.150 setgray
/DejaVuSans findfont
13.200 scalefont
setfont
gsave
467.283938 20.074500 translate
90.000000 rotate
0.000000 0.000000 m /zero glyphshow
grestore
1.000 setgray
gsave
290.5 289.6 463.7 38.01 clipbox
542.741265 38.012 m
542.741265 327.648 l
stroke
grestore
0.150 setgray
gsave
546.327203 11.637000 translate
90.000000 rotate
0.000000 0.000000 m /five glyphshow
8.430054 0.000000 m /zero glyphshow
grestore
1.000 setgray
gsave
290.5 289.6 463.7 38.01 clipbox
621.784531 38.012 m
621.784531 327.648 l
stroke
grestore
0.150 setgray
gsave
625.370468 3.199500 translate
90.000000 rotate
0.000000 0.000000 m /one glyphshow
8.430054 0.000000 m /zero glyphshow
16.860107 0.000000 m /zero glyphshow
grestore
1.000 setgray
gsave
290.5 289.6 463.7 38.01 clipbox
700.827796 38.012 m
700.827796 327.648 l
stroke
grestore
0.150 setgray
gsave
704.413733 3.199500 translate
90.000000 rotate
0.000000 0.000000 m /one glyphshow
8.430054 0.000000 m /five glyphshow
16.860107 0.000000 m /zero glyphshow
grestore
/DejaVuSans findfont
21.000 scalefont
setfont
gsave
572.283750 -16.753625 translate
0.000000 rotate
0.000000 0.000000 m /C glyphshow
14.663086 0.000000 m /o glyphshow
27.511230 0.000000 m /u glyphshow
40.820801 0.000000 m /n glyphshow
54.130371 0.000000 m /t glyphshow
62.364258 0.000000 m /s glyphshow
grestore
0 setlinejoin
0 setlinecap
[] 0 setdash
1.000 setgray
gsave
290.5 289.6 463.7 38.01 clipbox
463.698 320.4071 m
724.540776 320.4071 l
724.540776 262.4799 l
463.698 262.4799 l
cl
gsave
0.347 0.459 0.641 setrgbcolor
fill
grestore
stroke
grestore
gsave
290.5 289.6 463.7 38.01 clipbox
463.698 247.9981 m
724.540776 247.9981 l
724.540776 190.0709 l
463.698 190.0709 l
cl
gsave
0.799 0.537 0.390 setrgbcolor
fill
grestore
stroke
grestore
gsave
290.5 289.6 463.7 38.01 clipbox
463.698 175.5891 m
637.593184 175.5891 l
637.593184 117.6619 l
463.698 117.6619 l
cl
gsave
0.374 0.618 0.430 setrgbcolor
fill
grestore
stroke
grestore
gsave
290.5 289.6 463.7 38.01 clipbox
463.698 103.1801 m
558.549918 103.1801 l
558.549918 45.2529 l
463.698 45.2529 l
cl
gsave
0.711 0.364 0.375 setrgbcolor
fill
grestore
stroke
grestore
1.250 setlinewidth
2 setlinecap
gsave
463.698 38.012 m
463.698 327.648 l
stroke
grestore
gsave
463.698 38.012 m
754.182 38.012 l
stroke
grestore
0.150 setgray
/DejaVuSans findfont
14.400 scalefont
setfont
gsave
566.096250 333.648000 translate
0.000000 rotate
0.000000 0.000000 m /t glyphshow
5.636292 0.000000 m /i glyphshow
9.630127 0.000000 m /m glyphshow
23.633118 0.000000 m /e glyphshow
32.477112 0.000000 m /space glyphshow
37.046509 0.000000 m /equal glyphshow
49.091187 0.000000 m /space glyphshow
53.660583 0.000000 m /three glyphshow
62.806396 0.000000 m /six glyphshow
71.952209 0.000000 m /period glyphshow
76.521606 0.000000 m /zero glyphshow
grestore
gsave
773.964 38.012 m
1064.448 38.012 l
1064.448 327.648 l
773.964 327.648 l
cl
0.918 0.918 0.949 setrgbcolor
fill
grestore
1.000 setlinewidth
1 setlinejoin
1 setlinecap
[] 0 setdash
1.000 setgray
gsave
290.5 289.6 774 38.01 clipbox
773.964 38.012 m
773.964 327.648 l
stroke
grestore
0.150 setgray
/DejaVuSans findfont
13.200 scalefont
setfont
gsave
777.549938 20.074500 translate
90.000000 rotate
0.000000 0.000000 m /zero glyphshow
grestore
1.000 setgray
gsave
290.5 289.6 774 38.01 clipbox
853.007265 38.012 m
853.007265 327.648 l
stroke
grestore
0.150 setgray
gsave
856.593203 11.637000 translate
90.000000 rotate
0.000000 0.000000 m /five glyphshow
8.430054 0.000000 m /zero glyphshow
grestore
1.000 setgray
gsave
290.5 289.6 774 38.01 clipbox
932.050531 38.012 m
932.050531 327.648 l
stroke
grestore
0.150 setgray
gsave
935.636468 3.199500 translate
90.000000 rotate
0.000000 0.000000 m /one glyphshow
8.430054 0.000000 m /zero glyphshow
16.860107 0.000000 m /zero glyphshow
grestore
1.000 setgray
gsave
290.5 289.6 774 38.01 clipbox
1011.093796 38.012 m
1011.093796 327.648 l
stroke
grestore
0.150 setgray
gsave
1014.679733 3.199500 translate
90.000000 rotate
0.000000 0.000000 m /one glyphshow
8.430054 0.000000 m /five glyphshow
16.860107 0.000000 m /zero glyphshow
grestore
/DejaVuSans findfont
21.000 scalefont
setfont
gsave
882.549750 -16.753625 translate
0.000000 rotate
0.000000 0.000000 m /C glyphshow
14.663086 0.000000 m /o glyphshow
27.511230 0.000000 m /u glyphshow
40.820801 0.000000 m /n glyphshow
54.130371 0.000000 m /t glyphshow
62.364258 0.000000 m /s glyphshow
grestore
0 setlinejoin
0 setlinecap
[] 0 setdash
1.000 setgray
gsave
290.5 289.6 774 38.01 clipbox
773.964 320.4071 m
1050.615429 320.4071 l
1050.615429 262.4799 l
773.964 262.4799 l
cl
gsave
0.347 0.459 0.641 setrgbcolor
fill
grestore
stroke
grestore
gsave
290.5 289.6 774 38.01 clipbox
773.964 247.9981 m
1015.836392 247.9981 l
1015.836392 190.0709 l
773.964 190.0709 l
cl
gsave
0.799 0.537 0.390 setrgbcolor
fill
grestore
stroke
grestore
gsave
290.5 289.6 774 38.01 clipbox
773.964 175.5891 m
963.667837 175.5891 l
963.667837 117.6619 l
773.964 117.6619 l
cl
gsave
0.374 0.618 0.430 setrgbcolor
fill
grestore
stroke
grestore
gsave
290.5 289.6 774 38.01 clipbox
773.964 103.1801 m
856.168996 103.1801 l
856.168996 45.2529 l
773.964 45.2529 l
cl
gsave
0.711 0.364 0.375 setrgbcolor
fill
grestore
stroke
grestore
1.250 setlinewidth
2 setlinecap
gsave
773.964 38.012 m
773.964 327.648 l
stroke
grestore
gsave
773.964 38.012 m
1064.448 38.012 l
stroke
grestore
0.150 setgray
/DejaVuSans findfont
14.400 scalefont
setfont
gsave
876.362250 333.648000 translate
0.000000 rotate
0.000000 0.000000 m /t glyphshow
5.636292 0.000000 m /i glyphshow
9.630127 0.000000 m /m glyphshow
23.633118 0.000000 m /e glyphshow
32.477112 0.000000 m /space glyphshow
37.046509 0.000000 m /equal glyphshow
49.091187 0.000000 m /space glyphshow
53.660583 0.000000 m /six glyphshow
62.806396 0.000000 m /zero glyphshow
71.952209 0.000000 m /period glyphshow
76.521606 0.000000 m /zero glyphshow
grestore

end
showpage
